<?xml version="1.0" encoding="UTF-8" standalone="no"?>
<!DOCTYPE svg PUBLIC "-//W3C//DTD SVG 1.0//EN" "http://www.w3.org/TR/2001/PR-SVG-20010719/DTD/svg10.dtd">
<svg width="26cm" height="13cm" viewBox="212 159 508 256" xmlns="http://www.w3.org/2000/svg" xmlns:xlink="http://www.w3.org/1999/xlink">
  <g>
    <rect style="fill: #ffffff" x="283.646" y="164.172" width="80" height="36" rx="10" ry="10"/>
    <rect style="fill: none; fill-opacity:0; stroke-width: 2; stroke: #000000" x="283.646" y="164.172" width="80" height="36" rx="10" ry="10"/>
    <text font-size="12.8" style="fill: #000000;text-anchor:middle;font-family:sans-serif;font-style:normal;font-weight:normal" x="323.646" y="186.072">
      <tspan x="323.646" y="186.072">ESPERA</tspan>
    </text>
  </g>
  <ellipse style="fill: #000000" cx="223.37" cy="182.172" rx="10" ry="10"/>
  <g>
    <rect style="fill: #ffffff" x="273.746" y="355.402" width="99.8" height="36" rx="10" ry="10"/>
    <rect style="fill: none; fill-opacity:0; stroke-width: 2; stroke: #000000" x="273.746" y="355.402" width="99.8" height="36" rx="10" ry="10"/>
    <text font-size="12.8" style="fill: #000000;text-anchor:middle;font-family:sans-serif;font-style:normal;font-weight:normal" x="323.646" y="377.302">
      <tspan x="323.646" y="377.302">ALMACENAR</tspan>
    </text>
  </g>
  <g>
    <rect style="fill: #ffffff" x="558.04" y="347.402" width="161.2" height="52" rx="10" ry="10"/>
    <rect style="fill: none; fill-opacity:0; stroke-width: 2; stroke: #000000" x="558.04" y="347.402" width="161.2" height="52" rx="10" ry="10"/>
    <text font-size="12.8" style="fill: #000000;text-anchor:middle;font-family:sans-serif;font-style:normal;font-weight:normal" x="638.64" y="369.302">
      <tspan x="638.64" y="369.302">CALCULAR INDIVIDUO</tspan>
      <tspan x="638.64" y="385.302">MÁS DISTANTE</tspan>
    </text>
  </g>
  <g>
    <polygon style="fill: #ffffff" points="437.964,373.402 457.964,353.402 477.964,373.402 457.964,393.402 "/>
    <polygon style="fill: none; fill-opacity:0; stroke-width: 2; stroke: #000000" points="437.964,373.402 457.964,353.402 477.964,373.402 457.964,393.402 "/>
  </g>
  <g>
    <rect style="fill: #ffffff" x="501.774" y="233.724" width="80" height="36" rx="10" ry="10"/>
    <rect style="fill: none; fill-opacity:0; stroke-width: 2; stroke: #000000" x="501.774" y="233.724" width="80" height="36" rx="10" ry="10"/>
    <text font-size="12.8" style="fill: #000000;text-anchor:middle;font-family:sans-serif;font-style:normal;font-weight:normal" x="541.774" y="255.624">
      <tspan x="541.774" y="255.624">MIGRAR</tspan>
    </text>
  </g>
  <g>
    <ellipse style="fill: #ffffff" cx="636.532" cy="182.172" rx="15" ry="15"/>
    <ellipse style="fill: none; fill-opacity:0; stroke-width: 2; stroke: #000000" cx="636.532" cy="182.172" rx="15" ry="15"/>
    <ellipse style="fill: #000000" cx="636.532" cy="182.172" rx="10" ry="10"/>
  </g>
  <g>
    <line style="fill: none; fill-opacity:0; stroke-width: 2; stroke: #000000" x1="323.646" y1="201.15" x2="323.646" y2="344.688"/>
    <polygon style="fill: #000000" points="323.646,352.188 318.646,342.188 323.646,344.688 328.646,342.188 "/>
    <polygon style="fill: none; fill-opacity:0; stroke-width: 2; stroke: #000000" points="323.646,352.188 318.646,342.188 323.646,344.688 328.646,342.188 "/>
  </g>
  <g>
    <line style="fill: none; fill-opacity:0; stroke-width: 2; stroke: #000000" x1="374.107" y1="373.402" x2="428.228" y2="373.402"/>
    <polygon style="fill: #000000" points="435.728,373.402 425.728,378.402 428.228,373.402 425.728,368.402 "/>
    <polygon style="fill: none; fill-opacity:0; stroke-width: 2; stroke: #000000" points="435.728,373.402 425.728,378.402 428.228,373.402 425.728,368.402 "/>
  </g>
  <g>
    <line style="fill: none; fill-opacity:0; stroke-width: 2; stroke: #000000" x1="457.964" y1="353.402" x2="344.551" y2="208.822"/>
    <polygon style="fill: #000000" points="339.922,202.921 350.028,207.703 344.551,208.822 342.16,213.875 "/>
    <polygon style="fill: none; fill-opacity:0; stroke-width: 2; stroke: #000000" points="339.922,202.921 350.028,207.703 344.551,208.822 342.16,213.875 "/>
  </g>
  <g>
    <line style="fill: none; fill-opacity:0; stroke-width: 2; stroke: #000000" x1="617.155" y1="346.414" x2="561.46" y2="276.452"/>
    <polygon style="fill: #000000" points="556.788,270.584 566.929,275.294 561.46,276.452 559.105,281.522 "/>
    <polygon style="fill: none; fill-opacity:0; stroke-width: 2; stroke: #000000" points="556.788,270.584 566.929,275.294 561.46,276.452 559.105,281.522 "/>
  </g>
  <g>
    <line style="fill: none; fill-opacity:0; stroke-width: 2; stroke: #000000" x1="477.964" y1="373.402" x2="547.301" y2="373.402"/>
    <polygon style="fill: #000000" points="554.801,373.402 544.801,378.402 547.301,373.402 544.801,368.402 "/>
    <polygon style="fill: none; fill-opacity:0; stroke-width: 2; stroke: #000000" points="554.801,373.402 544.801,378.402 547.301,373.402 544.801,368.402 "/>
  </g>
  <g>
    <line style="fill: none; fill-opacity:0; stroke-width: 2; stroke: #000000" x1="500.822" y1="238.666" x2="373.874" y2="198.187"/>
    <polygon style="fill: #000000" points="366.729,195.909 377.775,194.183 373.874,198.187 374.737,203.711 "/>
    <polygon style="fill: none; fill-opacity:0; stroke-width: 2; stroke: #000000" points="366.729,195.909 377.775,194.183 373.874,198.187 374.737,203.711 "/>
  </g>
  <g>
    <line style="fill: none; fill-opacity:0; stroke-width: 2; stroke: #000000" x1="364.638" y1="182.172" x2="610.812" y2="182.172"/>
    <polygon style="fill: #000000" points="618.312,182.172 608.312,187.172 610.812,182.172 608.312,177.172 "/>
    <polygon style="fill: none; fill-opacity:0; stroke-width: 2; stroke: #000000" points="618.312,182.172 608.312,187.172 610.812,182.172 608.312,177.172 "/>
  </g>
  <g>
    <rect style="fill: #ffffff" x="260.171" y="274.476" width="126.95" height="20.4333"/>
    <text font-size="8.46667" style="fill: #000000;text-anchor:middle;font-family:sans-serif;font-style:normal;font-weight:normal" x="323.646" y="282.326">
      <tspan x="323.646" y="282.326">Un trabajador envía</tspan>
      <tspan x="323.646" y="292.909">un mensaje con un emigrante</tspan>
    </text>
  </g>
  <text font-size="8.46667" style="fill: #000000;text-anchor:middle;font-family:sans-serif;font-style:normal;font-weight:normal" x="459.812" y="402.282">
    <tspan x="459.812" y="402.282">¿umbral de diversidad superado</tspan>
    <tspan x="459.812" y="412.865">y existe otro emigrante disponible?</tspan>
  </text>
  <text font-size="8.46667" style="fill: #000000;text-anchor:middle;font-family:sans-serif;font-style:normal;font-weight:normal" x="512.334" y="364.674">
    <tspan x="512.334" y="364.674">sí</tspan>
  </text>
  <text font-size="8.46667" style="fill: #000000;text-anchor:middle;font-family:sans-serif;font-style:normal;font-weight:normal" x="410.534" y="276.49">
    <tspan x="410.534" y="276.49">no</tspan>
  </text>
  <g>
    <rect style="fill: #ffffff" x="549.398" y="297.17" width="78.9" height="20.4333"/>
    <text font-size="8.46667" style="fill: #000000;text-anchor:middle;font-family:sans-serif;font-style:normal;font-weight:normal" x="588.848" y="305.02">
      <tspan x="588.848" y="305.02">escogido individuo</tspan>
      <tspan x="588.848" y="315.603">más lejano</tspan>
    </text>
  </g>
  <text font-size="8.46667" style="fill: #000000;text-anchor:middle;font-family:sans-serif;font-style:normal;font-weight:normal" x="489.64" y="166.908">
    <tspan x="489.64" y="166.908">todos los trabajadores</tspan>
    <tspan x="489.64" y="177.491">han terminado</tspan>
  </text>
  <g>
    <line style="fill: none; fill-opacity:0; stroke-width: 2; stroke: #000000" x1="234.362" y1="182.172" x2="272.916" y2="182.172"/>
    <polygon style="fill: #000000" points="280.416,182.172 270.416,187.172 272.916,182.172 270.416,177.172 "/>
    <polygon style="fill: none; fill-opacity:0; stroke-width: 2; stroke: #000000" points="280.416,182.172 270.416,187.172 272.916,182.172 270.416,177.172 "/>
  </g>
</svg>
