%!PS-Adobe-3.0 EPSF-3.0
%%Creator: cairo 1.14.0 (http://cairographics.org)
%%CreationDate: Fri Jul 14 20:10:54 2017
%%Pages: 1
%%DocumentData: Clean7Bit
%%LanguageLevel: 3
%%BoundingBox: 0 -1 478 376
%%EndComments
%%BeginProlog
save
50 dict begin
/q { gsave } bind def
/Q { grestore } bind def
/cm { 6 array astore concat } bind def
/w { setlinewidth } bind def
/J { setlinecap } bind def
/j { setlinejoin } bind def
/M { setmiterlimit } bind def
/d { setdash } bind def
/m { moveto } bind def
/l { lineto } bind def
/c { curveto } bind def
/h { closepath } bind def
/re { exch dup neg 3 1 roll 5 3 roll moveto 0 rlineto
      0 exch rlineto 0 rlineto closepath } bind def
/S { stroke } bind def
/f { fill } bind def
/f* { eofill } bind def
/n { newpath } bind def
/W { clip } bind def
/W* { eoclip } bind def
/BT { } bind def
/ET { } bind def
/pdfmark where { pop globaldict /?pdfmark /exec load put }
    { globaldict begin /?pdfmark /pop load def /pdfmark
    /cleartomark load def end } ifelse
/BDC { mark 3 1 roll /BDC pdfmark } bind def
/EMC { mark /EMC pdfmark } bind def
/cairo_store_point { /cairo_point_y exch def /cairo_point_x exch def } def
/Tj { show currentpoint cairo_store_point } bind def
/TJ {
  {
    dup
    type /stringtype eq
    { show } { -0.001 mul 0 cairo_font_matrix dtransform rmoveto } ifelse
  } forall
  currentpoint cairo_store_point
} bind def
/cairo_selectfont { cairo_font_matrix aload pop pop pop 0 0 6 array astore
    cairo_font exch selectfont cairo_point_x cairo_point_y moveto } bind def
/Tf { pop /cairo_font exch def /cairo_font_matrix where
      { pop cairo_selectfont } if } bind def
/Td { matrix translate cairo_font_matrix matrix concatmatrix dup
      /cairo_font_matrix exch def dup 4 get exch 5 get cairo_store_point
      /cairo_font where { pop cairo_selectfont } if } bind def
/Tm { 2 copy 8 2 roll 6 array astore /cairo_font_matrix exch def
      cairo_store_point /cairo_font where { pop cairo_selectfont } if } bind def
/g { setgray } bind def
/rg { setrgbcolor } bind def
/d1 { setcachedevice } bind def
%%EndProlog
%%BeginSetup
%%EndSetup
%%Page: 1 1
%%BeginPageSetup
%%PageBoundingBox: 0 -1 478 376
%%EndPageSetup
q 0 -1 478 377 rectclip q
1 g
0 375.625 477.973 -375.625 re f
Q q
24.371 368.426 446.402 -345.602 re W n
q
24 368.625 447 -346 re W n
[ 1 0 0 1 0 -0.375 ] concat
  q
Q q
174.449 138.734 128.531 -105.586 re W n
q
174 139 129 -106 re W n
  q
1 g
175.449 137.734 126.531 -103.586 re f
0 g
1 w
0 J
1 j
[] 0.0 d
10 M 175.449 137.734 126.531 -103.586 re S
  Q
Q
Q q
174.449 358.852 128.531 -105.586 re W n
q
174 359 129 -106 re W n
  q
1 g
175.449 357.852 126.531 -103.586 re f
0 g
1 w
0 J
1 j
[] 0.0 d
10 M 175.449 357.852 126.531 -103.586 re S
  Q
Q
Q q
300.98 358.852 133.59 -101.602 re W n
q
300 359 135 -102 re W n
  q
1 g
301.98 357.852 131.59 -99.602 re f
0 g
1 w
0 J
1 j
[] 0.0 d
10 M 301.98 357.852 131.59 -99.602 re S
  Q
Q
Q q
60.57 358.852 115.879 -260.965 re W n
q
60 359 117 -262 re W n
  q
0 0.541176 1 rg
61.57 357.852 113.879 -258.965 re f
0 g
1 w
0 J
1 j
[] 0.0 d
10 M 61.57 357.852 113.879 -258.965 re S
  Q
Q
Q q
300.98 259.25 133.59 -226.102 re W n
q
300 260 135 -227 re W n
  q
0 0.541176 1 rg
301.98 258.25 131.59 -224.102 re f
0 g
1 w
0 J
1 j
[] 0.0 d
10 M 301.98 258.25 131.59 -224.102 re S
  Q
Q
Q q
174.449 255.266 128.531 -60.266 re W n
q
174 256 129 -61 re W n
  q
1 g
175.449 254.266 126.531 -58.266 re f
0 g
1 w
0 J
1 j
[] 0.0 d
10 M 175.449 254.266 126.531 -58.266 re S
  Q
Q
Q q
60.57 99.887 115.879 -66.738 re W n
q
60 100 117 -67 re W n
  q
1 g
61.57 98.887 113.879 -64.738 re f
0 g
1 w
0 J
1 j
[] 0.0 d
10 M 61.57 98.887 113.879 -64.738 re S
  Q
Q
Q q
174.449 197 128.531 -60.266 re W n
q
174 197 129 -61 re W n
  q
1 g
175.449 196 126.531 -58.266 re f
0 g
1 w
0 J
1 j
[] 0.0 d
10 M 175.449 196 126.531 -58.266 re S
  Q
Q
  Q
Q
1 0 0 rg
2.16 w
0 J
0 j
[] 0.0 d
4 M q 1 0 0 -1 0 375.625 cm
61.426 18.359 m 175.457 277.129 l S Q
2.16 w
175.633 357.445 m 61.605 98.672 l S
2.142275 w
302.363 257.191 m 432.648 34.41 l S
433 257.547 m 302.715 34.766 l S
0 0 0.717647 rg
3.557865 w
117.832 144.91 m 361.809 144.91 l S
357.539 144.91 m 353.98 148.469 l 366.434 144.91 l 353.98 141.352 l h
357.539 144.91 m f*
0.889466 w
q -1 0 0 -1 0 375.625 cm
-357.539 230.715 m -353.98 227.156 l -366.434 230.715 l -353.98 234.273
 l h
-357.539 230.715 m S Q
Q q
Q q
117 227.625 3 -85 re W n
q
117 227.625 3 -85 re W n
% Fallback Image: x=117 y=148 w=3 h=85 res=300ppi size=13845
[ 0.24 0 0 0.24 117 142.425 ] concat
/DeviceRGB setcolorspace
8 dict dup begin
  /ImageType 1 def
  /Width 13 def
  /Height 355 def
  /Interpolate false def
  /BitsPerComponent 8 def
  /Decode [ 0 1 0 1 0 1 ] def
  /DataSource currentfile /ASCII85Decode filter /FlateDecode filter def
  /ImageMatrix [ 1 0 0 -1 0 355 ] def
end
image
Gb"0M:FO+h*67S^J(g3J+Y/%X/0%Kn>\oalM.k#\m"3,o;3nGNe:b,[Pbah*.rsY16unY8,W
 5VPjA5S1LS6TOr:4WPgO<(=I-Q-*qS%9%%aS3;*k7DHKF!FdC.TXiKf[G!bV;B(;cN4="9h
 ,Oj*3epP[Q4ugdLi/3L\CjYa=scB5-p4=Cco<\Ws]3fnEO?WuXjSB$-Q`HM2O2e3*)$+OIO
 !AD98\"pYZC<pQ`Y'm/nhA]f8!WG.Z,1mbX&-?H5Fl)Roe@GC8X`R1cn@?NKAMa]KCFt6X*
 %%_O-Z"8d0SCPN7iG/puD<Fp)k#E\K)S1gJXHj$Uc"l(t;T**;,EJbeq$\d_Hf?dEW5$+(7
 Eq^L5Re5sF[#RH$<-g?5GP"<Wc$c`0Hhqdn1o`j70Wr#"pP89"pP89"pP89"pP89"pP89"p
 P89"pP89"pP89"pP89"pP89"pP;*[olV\=c.*TPLt+Nl;#3E0raDfOS-,7rHfmV]9enG3!h
 .&`9Ia)rR_"R&,C&bVu~>
Q
Q Q
showpage
%%Trailer
end restore
%%EOF
