<?xml version="1.0" encoding="UTF-8" standalone="no"?>
<!-- Created with Inkscape (http://www.inkscape.org/) -->

<svg
   xmlns:dc="http://purl.org/dc/elements/1.1/"
   xmlns:cc="http://creativecommons.org/ns#"
   xmlns:rdf="http://www.w3.org/1999/02/22-rdf-syntax-ns#"
   xmlns:svg="http://www.w3.org/2000/svg"
   xmlns="http://www.w3.org/2000/svg"
   xmlns:sodipodi="http://sodipodi.sourceforge.net/DTD/sodipodi-0.dtd"
   xmlns:inkscape="http://www.inkscape.org/namespaces/inkscape"
   width="529.87402"
   height="838.80597"
   id="svg2"
   version="1.1"
   inkscape:version="0.48.5 r10040"
   sodipodi:docname="instancia.svg">
  <sodipodi:namedview
     id="base"
     pagecolor="#ffffff"
     bordercolor="#666666"
     borderopacity="1.0"
     inkscape:pageopacity="0.0"
     inkscape:pageshadow="2"
     inkscape:zoom="0.49497475"
     inkscape:cx="60.892617"
     inkscape:cy="419.04491"
     inkscape:document-units="px"
     inkscape:current-layer="layer1"
     showgrid="false"
     inkscape:window-width="1366"
     inkscape:window-height="717"
     inkscape:window-x="0"
     inkscape:window-y="0"
     inkscape:window-maximized="1"
     fit-margin-top="0"
     fit-margin-left="0"
     fit-margin-right="0"
     fit-margin-bottom="0" />
  <defs
     id="defs4">
    <marker
       style="overflow:visible"
       id="DistanceEnd"
       refX="0"
       refY="0"
       orient="auto"
       inkscape:stockid="DistanceEnd">
      <g
         id="g2301">
        <path
           style="fill:none;stroke:#ffffff;stroke-width:1.14999998;stroke-linecap:square"
           d="M 0,0 -2,0"
           id="path2316"
           inkscape:connector-curvature="0" />
        <path
           style="fill:#000000;fill-rule:evenodd;stroke:none"
           d="M 0,0 -13,4 -9,0 -13,-4 0,0 z"
           id="path2312"
           inkscape:connector-curvature="0" />
        <path
           style="fill:none;stroke:#000000;stroke-width:1;stroke-linecap:square"
           d="M 0,-4 0,40"
           id="path2314"
           inkscape:connector-curvature="0" />
      </g>
    </marker>
    <marker
       style="overflow:visible"
       id="DistanceStart"
       refX="0"
       refY="0"
       orient="auto"
       inkscape:stockid="DistanceStart">
      <g
         id="g2300">
        <path
           style="fill:none;stroke:#ffffff;stroke-width:1.14999998;stroke-linecap:square"
           d="M 0,0 2,0"
           id="path2306"
           inkscape:connector-curvature="0" />
        <path
           style="fill:#000000;fill-rule:evenodd;stroke:none"
           d="M 0,0 13,4 9,0 13,-4 0,0 z"
           id="path2302"
           inkscape:connector-curvature="0" />
        <path
           style="fill:none;stroke:#000000;stroke-width:1;stroke-linecap:square"
           d="M 0,-4 0,40"
           id="path2304"
           inkscape:connector-curvature="0" />
      </g>
    </marker>
    <marker
       style="overflow:visible"
       id="DistanceStart-2"
       refX="0"
       refY="0"
       orient="auto"
       inkscape:stockid="DistanceStart">
      <g
         id="g2300-6">
        <path
           inkscape:connector-curvature="0"
           style="fill:none;stroke:#ffffff;stroke-width:1.14999998;stroke-linecap:square"
           d="M 0,0 2,0"
           id="path2306-1" />
        <path
           inkscape:connector-curvature="0"
           style="fill:#000000;fill-rule:evenodd;stroke:none"
           d="M 0,0 13,4 9,0 13,-4 0,0 z"
           id="path2302-8" />
        <path
           inkscape:connector-curvature="0"
           style="fill:none;stroke:#000000;stroke-width:1;stroke-linecap:square"
           d="M 0,-4 0,40"
           id="path2304-7" />
      </g>
    </marker>
    <marker
       style="overflow:visible"
       id="DistanceEnd-9"
       refX="0"
       refY="0"
       orient="auto"
       inkscape:stockid="DistanceEnd">
      <g
         id="g2301-2">
        <path
           inkscape:connector-curvature="0"
           style="fill:none;stroke:#ffffff;stroke-width:1.14999998;stroke-linecap:square"
           d="M 0,0 -2,0"
           id="path2316-0" />
        <path
           inkscape:connector-curvature="0"
           style="fill:#000000;fill-rule:evenodd;stroke:none"
           d="M 0,0 -13,4 -9,0 -13,-4 0,0 z"
           id="path2312-2" />
        <path
           inkscape:connector-curvature="0"
           style="fill:none;stroke:#000000;stroke-width:1;stroke-linecap:square"
           d="M 0,-4 0,40"
           id="path2314-3" />
      </g>
    </marker>
  </defs>
  <metadata
     id="metadata7">
    <rdf:RDF>
      <cc:Work
         rdf:about="">
        <dc:format>image/svg+xml</dc:format>
        <dc:type
           rdf:resource="http://purl.org/dc/dcmitype/StillImage" />
        <dc:title />
      </cc:Work>
    </rdf:RDF>
  </metadata>
  <g
     id="layer1"
     inkscape:groupmode="layer"
     inkscape:label="flujos"
     transform="translate(45.311946,-228.54378)"
     style="display:inline">
    <path
       transform="translate(20.323039,-7.0020227)"
       d="m 153.54319,796.79358 a 51.51778,51.51778 0 1 1 -103.035557,0 51.51778,51.51778 0 1 1 103.035557,0 z"
       sodipodi:ry="51.51778"
       sodipodi:rx="51.51778"
       sodipodi:cy="796.79358"
       sodipodi:cx="102.02541"
       id="path3784"
       style="fill:#ffff4a;fill-opacity:1;fill-rule:evenodd;stroke:#000000;stroke-width:1px;stroke-linecap:butt;stroke-linejoin:miter;stroke-opacity:1"
       sodipodi:type="arc" />
    <flowRoot
       transform="matrix(1.6185988,0,0,1.6185988,3.359512,-478.54443)"
       style="font-size:40px;font-style:normal;font-weight:normal;line-height:125%;letter-spacing:0px;word-spacing:0px;fill:#000000;fill-opacity:1;stroke:none;font-family:Sans"
       id="flowRoot3786"
       xml:space="preserve"><flowRegion
         id="flowRegion3788"><rect
           y="747.29614"
           x="55.558392"
           height="118.18785"
           width="133.34013"
           id="rect3790" /></flowRegion><flowPara
         style="font-size:56px"
         id="flowPara3792">1</flowPara></flowRoot>    <g
       id="g3950">
      <path
         sodipodi:type="arc"
         style="fill:#ffff4a;fill-opacity:1;fill-rule:evenodd;stroke:#000000;stroke-width:1px;stroke-linecap:butt;stroke-linejoin:miter;stroke-opacity:1"
         id="path3784-6"
         sodipodi:cx="102.02541"
         sodipodi:cy="796.79358"
         sodipodi:rx="51.51778"
         sodipodi:ry="51.51778"
         d="m 153.54319,796.79358 a 51.51778,51.51778 0 1 1 -103.035557,0 51.51778,51.51778 0 1 1 103.035557,0 z"
         transform="translate(259.73811,-25.925391)" />
      <flowRoot
         xml:space="preserve"
         id="flowRoot3786-7"
         style="font-size:40px;font-style:normal;font-weight:normal;line-height:125%;letter-spacing:0px;word-spacing:0px;fill:#000000;fill-opacity:1;stroke:none;font-family:Sans"
         transform="matrix(1.6185988,0,0,1.6185988,244.79489,-497.4678)"><flowRegion
           id="flowRegion3788-5"><rect
             id="rect3790-3"
             width="133.34013"
             height="118.18785"
             x="55.558392"
             y="747.29614" /></flowRegion><flowPara
           id="flowPara3792-5"
           style="font-size:56px">2</flowPara></flowRoot>    </g>
    <g
       id="g3936">
      <path
         sodipodi:type="arc"
         style="fill:#ffff4a;fill-opacity:1;fill-rule:evenodd;stroke:#000000;stroke-width:1px;stroke-linecap:butt;stroke-linejoin:miter;stroke-opacity:1"
         id="path3784-2"
         sodipodi:cx="102.02541"
         sodipodi:cy="796.79358"
         sodipodi:rx="51.51778"
         sodipodi:ry="51.51778"
         d="m 153.54319,796.79358 a 51.51778,51.51778 0 1 1 -103.035557,0 51.51778,51.51778 0 1 1 103.035557,0 z"
         transform="translate(59.050774,198.19574)" />
      <flowRoot
         xml:space="preserve"
         id="flowRoot3786-9"
         style="font-size:40px;font-style:normal;font-weight:normal;line-height:125%;letter-spacing:0px;word-spacing:0px;fill:#000000;fill-opacity:1;stroke:none;font-family:Sans"
         transform="matrix(1.6185988,0,0,1.6185988,43.0974,-272.33652)"><flowRegion
           id="flowRegion3788-1"><rect
             id="rect3790-2"
             width="133.34013"
             height="118.18785"
             x="55.558392"
             y="747.29614" /></flowRegion><flowPara
           id="flowPara3792-7"
           style="font-size:56px">3</flowPara></flowRoot>    </g>
    <g
       id="g3943">
      <path
         sodipodi:type="arc"
         style="fill:#ffff4a;fill-opacity:1;fill-rule:evenodd;stroke:#000000;stroke-width:1px;stroke-linecap:butt;stroke-linejoin:miter;stroke-opacity:1"
         id="path3784-9"
         sodipodi:cx="102.02541"
         sodipodi:cy="796.79358"
         sodipodi:rx="51.51778"
         sodipodi:ry="51.51778"
         d="m 153.54319,796.79358 a 51.51778,51.51778 0 1 1 -103.035557,0 51.51778,51.51778 0 1 1 103.035557,0 z"
         transform="translate(293.06616,193.64131)" />
      <flowRoot
         xml:space="preserve"
         id="flowRoot3786-3"
         style="font-size:40px;font-style:normal;font-weight:normal;line-height:125%;letter-spacing:0px;word-spacing:0px;fill:#000000;fill-opacity:1;stroke:none;font-family:Sans"
         transform="matrix(1.6185988,0,0,1.6185988,276.10263,-276.89095)"><flowRegion
           id="flowRegion3788-6"><rect
             id="rect3790-0"
             width="133.34013"
             height="118.18785"
             x="55.558392"
             y="747.29614" /></flowRegion><flowPara
           id="flowPara3792-6"
           style="font-size:56px">4</flowPara></flowRoot>    </g>
    <path
       inkscape:connector-curvature="0"
       inkscape:connector-type="polyline"
       id="path3909"
       d="M 173.70864,785.73205 310.40334,774.9277"
       style="fill:none;stroke:#000000;stroke-width:1px;stroke-linecap:butt;stroke-linejoin:miter;stroke-opacity:1"
       inkscape:connection-start-point="d4"
       inkscape:connection-start="#path3784" />
    <path
       inkscape:connection-start-point="d4"
       inkscape:connection-start="#path3784"
       inkscape:connector-curvature="0"
       inkscape:connector-type="polyline"
       id="path3911"
       d="M 131.90464,840.42473 151.52,944.35614"
       style="fill:none;stroke:#000000;stroke-width:1px;stroke-linecap:butt;stroke-linejoin:miter;stroke-opacity:1" />
    <path
       inkscape:connector-curvature="0"
       inkscape:connector-type="polyline"
       id="path3913"
       d="m 212.58441,993.98686 130.99894,-2.54951"
       style="fill:none;stroke:#000000;stroke-width:1px;stroke-linecap:butt;stroke-linejoin:miter;stroke-opacity:1" />
    <path
       inkscape:connector-curvature="0"
       inkscape:connector-type="polyline"
       id="path3915"
       d="M 387.35918,939.49353 369.49592,821.80954"
       style="fill:none;stroke:#000000;stroke-width:1px;stroke-linecap:butt;stroke-linejoin:miter;stroke-opacity:1" />
    <path
       inkscape:connection-start-point="d4"
       inkscape:connection-start="#path3784"
       inkscape:connector-curvature="0"
       inkscape:connector-type="polyline"
       id="path3917"
       d="M 163.8495,820.32178 353.59053,959.90467"
       style="fill:none;stroke:#000000;stroke-width:1px;stroke-linecap:butt;stroke-linejoin:miter;stroke-opacity:1" />
    <path
       inkscape:connector-curvature="0"
       inkscape:connector-type="polyline"
       id="path3919"
       d="M 195.44332,956.60922 327.3964,809.24829"
       style="fill:none;stroke:#000000;stroke-width:1px;stroke-linecap:butt;stroke-linejoin:miter;stroke-opacity:1" />
    <g
       id="g4163"
       transform="translate(-446.48742,-119.198)">
      <path
         id="path4017"
         d="m 666.44847,855.60109 h 5.86693 c 1.38046,0 2.07068,0 2.07068,-1.38045 0,-0.75925 -0.69022,-0.75925 -1.86361,-0.75925 h -5.65987 l 1.44948,-7.79958 c 0.20707,-1.44947 1.17339,-6.28107 1.58752,-7.10934 0.62121,-1.31143 1.7946,-2.34678 3.24407,-2.34678 0.2761,0 2.07069,0 3.38212,1.24241 -3.037,0.2761 -3.72723,2.69189 -3.72723,3.72723 0,1.58753 1.24241,2.34678 2.55384,2.34678 1.7946,0 3.79626,-1.44948 3.79626,-4.07235 0,-3.17504 -3.17505,-4.76257 -6.00499,-4.76257 -2.34677,0 -6.62618,1.24241 -8.69686,8.07567 -0.41414,1.38045 -0.62121,2.07068 -2.27776,10.69853 h -4.76257 c -1.31143,0 -2.07068,0 -2.07068,1.31143 0,0.82827 0.6212,0.82827 1.93264,0.82827 h 4.5555 l -5.17671,27.12595 c -1.24241,6.62619 -2.34677,12.83824 -5.93596,12.83824 -0.27609,0 -2.00166,0 -3.31309,-1.24241 3.17505,-0.13805 3.79625,-2.62287 3.79625,-3.65821 0,-1.58752 -1.24241,-2.4158 -2.55384,-2.4158 -1.79459,0 -3.79625,1.5185 -3.79625,4.14137 0,3.037 3.037,4.69355 5.86693,4.69355 3.79626,0 6.48814,-4.00332 7.73055,-6.62619 2.20873,-4.34843 3.79626,-12.63117 3.86528,-13.11432 z"
         inkscape:connector-curvature="0"
         style="font-style:normal;font-variant:normal;font-weight:normal;font-stretch:normal;letter-spacing:normal;word-spacing:normal;text-anchor:start;fill:#000000;fill-opacity:1;fill-rule:evenodd;stroke:#000000;stroke-width:0;stroke-linecap:butt;stroke-linejoin:miter;stroke-miterlimit:10.43299961;stroke-opacity:1;stroke-dasharray:none;stroke-dashoffset:0" />
      <path
         id="path4019"
         d="m 690.95155,862.84848 0,-0.069 0,-0.069 0,-0.069 0,0 0,-0.069 0,-0.069 0,-0.069 0,0 0,-0.069 0,-0.069 0,0 0,-0.069 0,-0.069 0,0 0,-0.069 0,0 0,-0.069 0,0 0,-0.069 -0.069,-0.069 0,-0.069 0,0 -0.069,-0.069 0,0 -0.069,-0.069 0,0 -0.069,-0.069 0,0 -0.069,0 -0.069,-0.069 -0.069,0 -0.069,0 0,0 -0.069,0 0,0 -0.069,0 -0.069,0 0,0 -0.069,0 -0.069,0 0,-0.069 -0.069,0 -0.069,0 0,0 -0.069,0 -0.069,0 -0.069,0 -0.069,0 0,0 -0.069,0 c -3.10602,3.037 -7.45446,3.10602 -9.45612,3.10602 v 1.72557 c 1.17339,0 4.34844,0 6.9713,-1.38045 v 24.50308 c 0,1.58752 0,2.20873 -4.83159,2.20873 h -1.79459 v 1.72557 c 0.82827,-0.069 6.76423,-0.20707 8.55882,-0.20707 1.5185,0 7.52348,0.13804 8.62785,0.20707 v -1.72557 h -1.86362 c -4.83159,0 -4.83159,-0.62121 -4.83159,-2.20873 z"
         inkscape:connector-curvature="0"
         style="font-style:normal;font-variant:normal;font-weight:normal;font-stretch:normal;letter-spacing:normal;word-spacing:normal;text-anchor:start;fill:#000000;fill-opacity:1;fill-rule:evenodd;stroke:#000000;stroke-width:0;stroke-linecap:butt;stroke-linejoin:miter;stroke-miterlimit:10.43299961;stroke-opacity:1;stroke-dasharray:none;stroke-dashoffset:0" />
      <path
         id="path4021"
         d="m 726.5673,884.65968 h -1.65655 c -0.13804,1.03534 -0.6212,3.86527 -1.24241,4.34843 -0.34511,0.27609 -4.07234,0.27609 -4.76257,0.27609 h -8.83491 c 5.03866,-4.48648 6.76423,-5.79791 9.59416,-8.07566 3.58919,-2.82993 6.90228,-5.79791 6.90228,-10.35342 0,-5.79791 -5.10769,-9.38709 -11.25071,-9.38709 -5.93596,0 -10.0083,4.21039 -10.0083,8.62784 0,2.4158 2.07068,2.69189 2.55384,2.69189 1.17338,0 2.55384,-0.82827 2.55384,-2.55384 0,-0.8973 -0.34511,-2.55384 -2.82993,-2.55384 1.5185,-3.38212 4.76257,-4.48648 7.04032,-4.48648 4.76257,0 7.24739,3.79625 7.24739,7.66152 0,4.14137 -2.96798,7.45446 -4.48648,9.18003 l -11.59583,11.45778 c -0.48315,0.41414 -0.48315,0.55219 -0.48315,1.86362 h 19.80953 z"
         inkscape:connector-curvature="0"
         style="font-style:normal;font-variant:normal;font-weight:normal;font-stretch:normal;letter-spacing:normal;word-spacing:normal;text-anchor:start;fill:#000000;fill-opacity:1;fill-rule:evenodd;stroke:#000000;stroke-width:0;stroke-linecap:butt;stroke-linejoin:miter;stroke-miterlimit:10.43299961;stroke-opacity:1;stroke-dasharray:none;stroke-dashoffset:0" />
    </g>
    <g
       id="g4168"
       transform="translate(-591.94939,-72.730983)">
      <path
         id="path4023"
         d="m 666.44847,958.79013 h 5.86693 c 1.38046,0 2.07068,0 2.07068,-1.38045 0,-0.75925 -0.69022,-0.75925 -1.86361,-0.75925 h -5.65987 l 1.44948,-7.79958 c 0.20707,-1.44947 1.17339,-6.35009 1.58752,-7.17836 0.62121,-1.31144 1.7946,-2.27775 3.24407,-2.27775 0.2761,0 2.07069,0 3.38212,1.17338 -3.037,0.27609 -3.72723,2.69189 -3.72723,3.72723 0,1.58753 1.24241,2.4158 2.55384,2.4158 1.7946,0 3.79626,-1.5185 3.79626,-4.14137 0,-3.10602 -3.17505,-4.69355 -6.00499,-4.69355 -2.34677,0 -6.62618,1.24241 -8.69686,8.00665 -0.41414,1.44947 -0.62121,2.1397 -2.27776,10.76755 h -4.76257 c -1.31143,0 -2.07068,0 -2.07068,1.31143 0,0.82827 0.6212,0.82827 1.93264,0.82827 h 4.5555 l -5.17671,27.05693 c -1.24241,6.62619 -2.34677,12.90726 -5.93596,12.90726 -0.27609,0 -2.00166,0 -3.31309,-1.24241 3.17505,-0.20707 3.79625,-2.69189 3.79625,-3.72723 0,-1.58753 -1.24241,-2.4158 -2.55384,-2.4158 -1.79459,0 -3.79625,1.5185 -3.79625,4.14137 0,3.10602 3.037,4.76255 5.86693,4.76255 3.79626,0 6.48814,-4.07233 7.73055,-6.69519 2.20873,-4.27941 3.79626,-12.63117 3.86528,-13.0453 z"
         inkscape:connector-curvature="0"
         style="font-style:normal;font-variant:normal;font-weight:normal;font-stretch:normal;letter-spacing:normal;word-spacing:normal;text-anchor:start;fill:#000000;fill-opacity:1;fill-rule:evenodd;stroke:#000000;stroke-width:0;stroke-linecap:butt;stroke-linejoin:miter;stroke-miterlimit:10.43299961;stroke-opacity:1;stroke-dasharray:none;stroke-dashoffset:0" />
      <path
         id="path4025"
         d="m 690.95155,965.9685 0,-0.069 0,-0.069 0,0 0,-0.069 0,-0.069 0,-0.069 0,0 0,-0.069 0,-0.069 0,0 0,-0.069 0,-0.069 0,0 0,-0.069 0,0 0,-0.069 0,0 0,-0.069 0,-0.069 -0.069,0 0,-0.069 0,-0.069 -0.069,0 0,-0.069 -0.069,-0.069 0,0 -0.069,0 0,-0.069 -0.069,0 -0.069,0 -0.069,-0.069 -0.069,0 0,0 -0.069,0 0,0 -0.069,0 -0.069,0 0,0 -0.069,0 -0.069,0 0,0 -0.069,0 -0.069,0 0,0 -0.069,0 -0.069,0 -0.069,0 -0.069,0 0,0 -0.069,0 c -3.10602,3.037 -7.45446,3.037 -9.45612,3.037 v 1.72557 c 1.17339,0 4.34844,0 6.9713,-1.31143 v 24.50308 c 0,1.5185 0,2.13971 -4.83159,2.13971 h -1.79459 v 1.72557 c 0.82827,0 6.76423,-0.13805 8.55882,-0.13805 1.5185,0 7.52348,0.13805 8.62785,0.13805 v -1.726 h -1.86362 c -4.83159,0 -4.83159,-0.62121 -4.83159,-2.13971 z"
         inkscape:connector-curvature="0"
         style="font-style:normal;font-variant:normal;font-weight:normal;font-stretch:normal;letter-spacing:normal;word-spacing:normal;text-anchor:start;fill:#000000;fill-opacity:1;fill-rule:evenodd;stroke:#000000;stroke-width:0;stroke-linecap:butt;stroke-linejoin:miter;stroke-miterlimit:10.43299961;stroke-opacity:1;stroke-dasharray:none;stroke-dashoffset:0" />
      <path
         id="path4027"
         d="m 715.38561,980.46328 0.41414,0 0.27609,0.069 0.34511,0 0.34512,0.069 0.34511,0.069 0.27609,0.069 0.34511,0.13805 0.27609,0.069 0.2761,0.13805 0.27609,0.13804 0.27609,0.13805 0.27609,0.20707 0.27609,0.20707 0.20707,0.20706 0.20707,0.20707 0.27609,0.20707 0.20707,0.27609 0.13804,0.27609 0.20707,0.27609 0.20707,0.2761 0.13804,0.34511 0.13805,0.27609 0.13805,0.34511 0.13804,0.34512 0.069,0.41413 0.13805,0.34512 0.069,0.41414 0.069,0.41413 0.069,0.41414 0,0.48316 0.069,0.41413 0,0.48316 c 0,5.93596 -3.45114,7.73055 -6.28107,7.73055 -1.93264,0 -6.14303,-0.55218 -8.14469,-3.31309 2.27775,-0.13804 2.76091,-1.72557 2.76091,-2.69189 0,-1.58752 -1.10436,-2.69189 -2.62286,-2.69189 -1.31144,0 -2.69189,0.82828 -2.69189,2.82994 0,4.48648 4.96964,7.38543 10.83657,7.38543 6.69521,0 11.25072,-4.41745 11.25072,-9.24905 0,-3.72723 -3.03701,-7.45446 -8.35176,-8.55882 5.03866,-1.86361 6.90228,-5.4528 6.90228,-8.35175 0,-3.79626 -4.41746,-6.62619 -9.73221,-6.62619 -5.31476,0 -9.3871,2.55384 -9.3871,6.41912 0,1.65654 1.03534,2.55384 2.48482,2.55384 1.44948,0 2.4158,-1.10437 2.4158,-2.48482 0,-1.38046 -0.96632,-2.34677 -2.4158,-2.48482 1.65655,-2.07068 4.96964,-2.62287 6.76423,-2.62287 2.13971,0 5.17671,1.03535 5.17671,5.24574 0,2.00166 -0.69023,4.21038 -1.93264,5.72888 -1.58752,1.7946 -2.89896,1.86362 -5.31475,2.00167 -1.17339,0.13804 -1.31143,0.13804 -1.5185,0.20706 -0.13805,0 -0.48316,0.069 -0.48316,0.55219 0,0.69022 0.41413,0.69022 1.24241,0.69022 z"
         inkscape:connector-curvature="0"
         style="font-style:normal;font-variant:normal;font-weight:normal;font-stretch:normal;letter-spacing:normal;word-spacing:normal;text-anchor:start;fill:#000000;fill-opacity:1;fill-rule:evenodd;stroke:#000000;stroke-width:0;stroke-linecap:butt;stroke-linejoin:miter;stroke-miterlimit:10.43299961;stroke-opacity:1;stroke-dasharray:none;stroke-dashoffset:0" />
    </g>
    <g
       id="g4173"
       transform="translate(-474.7717,-238.396)">
      <path
         id="path4029"
         d="m 666.44847,1061.9102 h 5.86693 c 1.38046,0 2.07068,0 2.07068,-1.3805 0,-0.7593 -0.69022,-0.7593 -1.86361,-0.7593 h -5.65987 l 1.44948,-7.7995 c 0.20707,-1.4495 1.17339,-6.2811 1.58752,-7.1094 0.62121,-1.3114 1.7946,-2.3467 3.24407,-2.3467 0.2761,0 2.07069,0 3.38212,1.2424 -3.037,0.2761 -3.72723,2.6919 -3.72723,3.6582 0,1.5875 1.24241,2.4158 2.55384,2.4158 1.7946,0 3.79626,-1.5185 3.79626,-4.0724 0,-3.175 -3.17505,-4.7625 -6.00499,-4.7625 -2.34677,0 -6.62618,1.2424 -8.69686,8.0066 -0.41414,1.4495 -0.62121,2.1397 -2.27776,10.7675 h -4.76257 c -1.31143,0 -2.07068,0 -2.07068,1.3115 0,0.8283 0.6212,0.8283 1.93264,0.8283 h 4.5555 l -5.17671,27.0569 c -1.24241,6.6952 -2.34677,12.9072 -5.93596,12.9072 -0.27609,0 -2.00166,0 -3.31309,-1.2424 3.17505,-0.207 3.79625,-2.6919 3.79625,-3.6582 0,-1.5875 -1.24241,-2.4158 -2.55384,-2.4158 -1.79459,0 -3.79625,1.5185 -3.79625,4.1414 0,3.037 3.037,4.6935 5.86693,4.6935 3.79626,0 6.48814,-4.0723 7.73055,-6.6261 2.20873,-4.3485 3.79626,-12.6312 3.86528,-13.1144 z"
         inkscape:connector-curvature="0"
         style="font-style:normal;font-variant:normal;font-weight:normal;font-stretch:normal;letter-spacing:normal;word-spacing:normal;text-anchor:start;fill:#000000;fill-opacity:1;fill-rule:evenodd;stroke:#000000;stroke-width:0;stroke-linecap:butt;stroke-linejoin:miter;stroke-miterlimit:10.43299961;stroke-opacity:1;stroke-dasharray:none;stroke-dashoffset:0" />
      <path
         id="path4031"
         d="m 690.95155,1069.1575 0,-0.069 0,-0.069 0,-0.069 0,-0.069 0,0 0,-0.069 0,-0.069 0,-0.069 0,0 0,-0.069 0,-0.069 0,0 0,-0.069 0,0 0,-0.069 0,0 0,-0.069 0,0 0,-0.069 -0.069,-0.069 0,-0.069 0,-0.069 -0.069,0 0,-0.069 -0.069,0 0,-0.069 -0.069,0 0,0 -0.069,-0.069 -0.069,0 -0.069,0 -0.069,0 0,0 -0.069,0 0,-0.069 -0.069,0 -0.069,0 0,0 -0.069,0 -0.069,0 0,0 -0.069,0 -0.069,0 0,0 -0.069,0 -0.069,0 -0.069,0 -0.069,0 0,0 -0.069,0 c -3.10602,3.037 -7.45446,3.106 -9.45612,3.106 v 1.7256 c 1.17339,0 4.34844,0 6.9713,-1.3805 v 24.5031 c 0,1.5875 0,2.2087 -4.83159,2.2087 h -1.79459 v 1.7256 c 0.82827,-0.069 6.76423,-0.2071 8.55882,-0.2071 1.5185,0 7.52348,0.1381 8.62785,0.2071 v -1.7256 h -1.86362 c -4.83159,0 -4.83159,-0.6212 -4.83159,-2.2087 z"
         inkscape:connector-curvature="0"
         style="font-style:normal;font-variant:normal;font-weight:normal;font-stretch:normal;letter-spacing:normal;word-spacing:normal;text-anchor:start;fill:#000000;fill-opacity:1;fill-rule:evenodd;stroke:#000000;stroke-width:0;stroke-linecap:butt;stroke-linejoin:miter;stroke-miterlimit:10.43299961;stroke-opacity:1;stroke-dasharray:none;stroke-dashoffset:0" />
      <path
         id="path4033"
         d="m 727.74069,1091.797 v -1.7256 h -5.31476 v -21.397 c 0,-1.0354 0,-1.3805 -1.10436,-1.3805 -0.55218,0 -0.75925,0 -1.24241,0.6903 l -15.94426,22.0872 v 1.7256 h 14.14967 l 0.34511,-1.7256 h -12.70019 l 12.70019,-17.6008 v 17.6008 l -0.34511,1.7256 v 3.9343 c 0,1.6566 0,2.2087 -3.86528,2.2087 h -1.31143 v 1.7256 c 2.4158,-0.069 5.4528,-0.2071 7.17837,-0.2071 1.79459,0 4.90061,0.1381 7.31641,0.2071 v -1.7256 h -1.31143 c -3.86528,0 -3.86528,-0.5521 -3.86528,-2.2087 v -3.9343 z"
         inkscape:connector-curvature="0"
         style="font-style:normal;font-variant:normal;font-weight:normal;font-stretch:normal;letter-spacing:normal;word-spacing:normal;text-anchor:start;fill:#000000;fill-opacity:1;fill-rule:evenodd;stroke:#000000;stroke-width:0;stroke-linecap:butt;stroke-linejoin:miter;stroke-miterlimit:10.43299961;stroke-opacity:1;stroke-dasharray:none;stroke-dashoffset:0" />
    </g>
    <g
       id="g4178"
       transform="translate(-446.48742,-254.55844)">
      <path
         id="path4035"
         d="m 666.44847,1165.0302 h 5.86693 c 1.38046,0 2.07068,0 2.07068,-1.3115 0,-0.7592 -0.69022,-0.7592 -1.86361,-0.7592 h -5.65987 l 1.44948,-7.8686 c 0.20707,-1.4495 1.17339,-6.2811 1.58752,-7.1094 0.62121,-1.3114 1.7946,-2.3467 3.24407,-2.3467 0.2761,0 2.07069,0 3.38212,1.2424 -3.037,0.2761 -3.72723,2.6919 -3.72723,3.7272 0,1.5875 1.24241,2.4158 2.55384,2.4158 1.7946,0 3.79626,-1.5185 3.79626,-4.1414 0,-3.175 -3.17505,-4.7625 -6.00499,-4.7625 -2.34677,0 -6.62618,1.2424 -8.69686,8.0756 -0.41414,1.4495 -0.62121,2.0707 -2.27776,10.7676 h -4.76257 c -1.31143,0 -2.07068,0 -2.07068,1.2424 0,0.8283 0.6212,0.8283 1.93264,0.8283 h 4.5555 l -5.17671,27.1259 c -1.24241,6.6262 -2.34677,12.9073 -5.93596,12.9073 -0.27609,0 -2.00166,0 -3.31309,-1.2424 3.17505,-0.2071 3.79625,-2.6919 3.79625,-3.7273 0,-1.5875 -1.24241,-2.4158 -2.55384,-2.4158 -1.79459,0 -3.79625,1.5185 -3.79625,4.1414 0,3.106 3.037,4.6936 5.86693,4.6936 3.79626,0 6.48814,-4.0034 7.73055,-6.6262 2.20873,-4.3485 3.79626,-12.6312 3.86528,-13.1144 z"
         inkscape:connector-curvature="0"
         style="font-style:normal;font-variant:normal;font-weight:normal;font-stretch:normal;letter-spacing:normal;word-spacing:normal;text-anchor:start;fill:#000000;fill-opacity:1;fill-rule:evenodd;stroke:#000000;stroke-width:0;stroke-linecap:butt;stroke-linejoin:miter;stroke-miterlimit:10.43299961;stroke-opacity:1;stroke-dasharray:none;stroke-dashoffset:0" />
      <path
         id="path4037"
         d="m 699.16526,1194.0888 h -1.65655 c -0.13804,1.0353 -0.6212,3.8652 -1.24241,4.3484 -0.34511,0.2761 -4.07234,0.2761 -4.76257,0.2761 h -8.83491 c 5.03866,-4.4865 6.76423,-5.7979 9.59416,-8.0757 3.58919,-2.8299 6.90228,-5.7979 6.90228,-10.3534 0,-5.7979 -5.10769,-9.3871 -11.25071,-9.3871 -5.93596,0 -10.0083,4.2104 -10.0083,8.6279 0,2.4157 2.07068,2.6918 2.55384,2.6918 1.17339,0 2.55384,-0.8282 2.55384,-2.5538 0,-0.8283 -0.34511,-2.5538 -2.82993,-2.5538 1.44948,-3.3822 4.76257,-4.4175 6.9713,-4.4175 4.83159,0 7.31641,3.7272 7.31641,7.5925 0,4.2104 -2.96798,7.5235 -4.48648,9.2491 l -11.59583,11.3887 c -0.48315,0.4141 -0.48315,0.5522 -0.48315,1.8636 h 19.80953 z"
         inkscape:connector-curvature="0"
         style="font-style:normal;font-variant:normal;font-weight:normal;font-stretch:normal;letter-spacing:normal;word-spacing:normal;text-anchor:start;fill:#000000;fill-opacity:1;fill-rule:evenodd;stroke:#000000;stroke-width:0;stroke-linecap:butt;stroke-linejoin:miter;stroke-miterlimit:10.43299961;stroke-opacity:1;stroke-dasharray:none;stroke-dashoffset:0" />
      <path
         id="path4039"
         d="m 715.38561,1186.7723 0.41414,0 0.27609,0 0.34511,0.069 0.34512,0.069 0.34511,0.069 0.27609,0.069 0.34511,0.069 0.27609,0.138 0.2761,0.138 0.27609,0.1381 0.27609,0.138 0.27609,0.2071 0.27609,0.2071 0.20707,0.207 0.20707,0.2071 0.27609,0.2071 0.20707,0.2761 0.13804,0.2761 0.20707,0.2761 0.20707,0.276 0.13804,0.2761 0.13805,0.3451 0.13805,0.3452 0.13804,0.3451 0.069,0.3451 0.13805,0.4141 0.069,0.4142 0.069,0.4141 0.069,0.4141 0,0.4142 0.069,0.4831 0,0.4832 c 0,5.936 -3.45114,7.7305 -6.28107,7.7305 -1.93264,0 -6.14303,-0.5521 -8.14469,-3.3821 2.27775,-0.069 2.76091,-1.6565 2.76091,-2.6919 0,-1.5185 -1.10436,-2.6228 -2.62286,-2.6228 -1.31144,0 -2.69189,0.8282 -2.69189,2.7609 0,4.5555 4.96964,7.4544 10.83657,7.4544 6.69521,0 11.25072,-4.4174 11.25072,-9.249 0,-3.7272 -3.03701,-7.4545 -8.35176,-8.5588 5.03866,-1.8636 6.90228,-5.4528 6.90228,-8.3518 0,-3.7962 -4.41746,-6.6952 -9.73221,-6.6952 -5.31476,0 -9.3871,2.6229 -9.3871,6.4881 0,1.5876 1.03534,2.5539 2.48482,2.5539 1.44948,0 2.4158,-1.1044 2.4158,-2.4848 0,-1.3805 -0.96632,-2.4158 -2.4158,-2.4849 1.65655,-2.1397 4.96964,-2.6228 6.76423,-2.6228 2.13971,0 5.17671,1.0353 5.17671,5.2457 0,2.0017 -0.69023,4.2104 -1.93264,5.6599 -1.58752,1.8636 -2.89896,1.9326 -5.31475,2.0707 -1.17339,0.138 -1.31143,0.138 -1.5185,0.138 -0.13805,0 -0.48316,0.1381 -0.48316,0.6212 0,0.6902 0.41413,0.6902 1.24241,0.6902 z"
         inkscape:connector-curvature="0"
         style="font-style:normal;font-variant:normal;font-weight:normal;font-stretch:normal;letter-spacing:normal;word-spacing:normal;text-anchor:start;fill:#000000;fill-opacity:1;fill-rule:evenodd;stroke:#000000;stroke-width:0;stroke-linecap:butt;stroke-linejoin:miter;stroke-miterlimit:10.43299961;stroke-opacity:1;stroke-dasharray:none;stroke-dashoffset:0" />
    </g>
    <g
       id="g4183"
       transform="translate(-264.65997,-410.12193)">
      <path
         id="path4041"
         d="m 666.44847,1268.2192 h 5.86693 c 1.38046,0 2.07068,0 2.07068,-1.3804 0,-0.7593 -0.69022,-0.7593 -1.86361,-0.7593 h -5.65987 l 1.44948,-7.7996 c 0.20707,-1.4494 1.17339,-6.3501 1.58752,-7.1783 0.62121,-1.2424 1.7946,-2.2778 3.24407,-2.2778 0.2761,0 2.07069,0 3.38212,1.2424 -3.037,0.2761 -3.72723,2.6229 -3.72723,3.6582 0,1.5876 1.24241,2.4158 2.55384,2.4158 1.7946,0 3.79626,-1.5185 3.79626,-4.1413 0,-3.1061 -3.17505,-4.6936 -6.00499,-4.6936 -2.34677,0 -6.62618,1.2424 -8.69686,8.0067 -0.41414,1.4494 -0.62121,2.1397 -2.27776,10.7675 h -4.76257 c -1.31143,0 -2.07068,0 -2.07068,1.3114 0,0.8283 0.6212,0.8283 1.93264,0.8283 h 4.5555 l -5.17671,27.0569 c -1.24241,6.6952 -2.34677,12.9073 -5.93596,12.9073 -0.27609,0 -2.00166,0 -3.31309,-1.2424 3.17505,-0.2071 3.79625,-2.6919 3.79625,-3.7272 0,-1.5185 -1.24241,-2.3468 -2.55384,-2.3468 -1.79459,0 -3.79625,1.5185 -3.79625,4.0723 0,3.106 3.037,4.7626 5.86693,4.7626 3.79626,0 6.48814,-4.0723 7.73055,-6.6262 2.20873,-4.3484 3.79626,-12.6312 3.86528,-13.1143 z"
         inkscape:connector-curvature="0"
         style="font-style:normal;font-variant:normal;font-weight:normal;font-stretch:normal;letter-spacing:normal;word-spacing:normal;text-anchor:start;fill:#000000;fill-opacity:1;fill-rule:evenodd;stroke:#000000;stroke-width:0;stroke-linecap:butt;stroke-linejoin:miter;stroke-miterlimit:10.43299961;stroke-opacity:1;stroke-dasharray:none;stroke-dashoffset:0" />
      <path
         id="path4043"
         d="m 699.16526,1297.2088 h -1.65655 c -0.13804,1.0353 -0.6212,3.8653 -1.24241,4.3484 -0.34511,0.2761 -4.07234,0.2761 -4.76257,0.2761 h -8.83491 c 5.03866,-4.4175 6.76423,-5.7979 9.59416,-8.0066 3.58919,-2.83 6.90228,-5.798 6.90228,-10.4225 0,-5.7979 -5.10769,-9.3181 -11.25071,-9.3181 -5.93596,0 -10.0083,4.1414 -10.0083,8.5589 0,2.4848 2.07068,2.6919 2.55384,2.6919 1.17339,0 2.55384,-0.8283 2.55384,-2.5539 0,-0.8283 -0.34511,-2.4848 -2.82993,-2.4848 1.44948,-3.4511 4.76257,-4.4865 6.9713,-4.4865 4.83159,0 7.31641,3.7272 7.31641,7.5925 0,4.2104 -2.96798,7.5235 -4.48648,9.2491 l -11.59583,11.4578 c -0.48315,0.4141 -0.48315,0.4831 -0.48315,1.8636 h 19.80953 z"
         inkscape:connector-curvature="0"
         style="font-style:normal;font-variant:normal;font-weight:normal;font-stretch:normal;letter-spacing:normal;word-spacing:normal;text-anchor:start;fill:#000000;fill-opacity:1;fill-rule:evenodd;stroke:#000000;stroke-width:0;stroke-linecap:butt;stroke-linejoin:miter;stroke-miterlimit:10.43299961;stroke-opacity:1;stroke-dasharray:none;stroke-dashoffset:0" />
      <path
         id="path4045"
         d="m 727.74069,1298.1061 v -1.7256 h -5.31476 v -21.4661 c 0,-0.9663 0,-1.3114 -1.10436,-1.3114 -0.55218,0 -0.75925,0 -1.24241,0.6902 l -15.94426,22.0873 v 1.7256 h 14.14967 l 0.34511,-1.7256 h -12.70019 l 12.70019,-17.6008 v 17.6008 l -0.34511,1.7256 v 3.9343 c 0,1.5875 0,2.1397 -3.86528,2.1397 h -1.31143 v 1.7946 c 2.4158,-0.1381 5.4528,-0.2071 7.17837,-0.2071 1.79459,0 4.90061,0.069 7.31641,0.2071 v -1.7946 h -1.31143 c -3.86528,0 -3.86528,-0.5522 -3.86528,-2.1397 v -3.9343 z"
         inkscape:connector-curvature="0"
         style="font-style:normal;font-variant:normal;font-weight:normal;font-stretch:normal;letter-spacing:normal;word-spacing:normal;text-anchor:start;fill:#000000;fill-opacity:1;fill-rule:evenodd;stroke:#000000;stroke-width:0;stroke-linecap:butt;stroke-linejoin:miter;stroke-miterlimit:10.43299961;stroke-opacity:1;stroke-dasharray:none;stroke-dashoffset:0" />
    </g>
    <g
       id="g4188"
       transform="translate(-404.06102,-345.47217)">
      <path
         id="path4047"
         d="m 666.44847,1371.3392 h 5.86693 c 1.38046,0 2.07068,0 2.07068,-1.3804 0,-0.7593 -0.69022,-0.7593 -1.86361,-0.7593 h -5.65987 l 1.44948,-7.7995 c 0.20707,-1.4495 1.17339,-6.2811 1.58752,-7.1094 0.62121,-1.3114 1.7946,-2.3468 3.24407,-2.3468 0.2761,0 2.07069,0 3.38212,1.2424 -3.037,0.2761 -3.72723,2.6919 -3.72723,3.7273 0,1.5875 1.24241,2.3467 2.55384,2.3467 1.7946,0 3.79626,-1.5185 3.79626,-4.0723 0,-3.175 -3.17505,-4.7626 -6.00499,-4.7626 -2.34677,0 -6.62618,1.2424 -8.69686,8.0757 -0.41414,1.3805 -0.62121,2.0707 -2.27776,10.6985 h -4.76257 c -1.31143,0 -2.07068,0 -2.07068,1.3115 0,0.8282 0.6212,0.8282 1.93264,0.8282 h 4.5555 l -5.17671,27.126 c -1.24241,6.6262 -2.34677,12.8382 -5.93596,12.8382 -0.27609,0 -2.00166,0 -3.31309,-1.2424 3.17505,-0.2071 3.79625,-2.6229 3.79625,-3.6582 0,-1.5875 -1.24241,-2.4158 -2.55384,-2.4158 -1.79459,0 -3.79625,1.5185 -3.79625,4.1414 0,3.037 3.037,4.6935 5.86693,4.6935 3.79626,0 6.48814,-4.0033 7.73055,-6.6262 2.20873,-4.3484 3.79626,-12.6311 3.86528,-13.1143 z"
         inkscape:connector-curvature="0"
         style="font-style:normal;font-variant:normal;font-weight:normal;font-stretch:normal;letter-spacing:normal;word-spacing:normal;text-anchor:start;fill:#000000;fill-opacity:1;fill-rule:evenodd;stroke:#000000;stroke-width:0;stroke-linecap:butt;stroke-linejoin:miter;stroke-miterlimit:10.43299961;stroke-opacity:1;stroke-dasharray:none;stroke-dashoffset:0" />
      <path
         id="path4049"
         d="m 687.98357,1393.0814 0.34511,0 0.34512,0 0.34511,0.069 0.34512,0 0.34511,0.069 0.27609,0.1381 0.34511,0.069 0.2761,0.1381 0.27609,0.138 0.27609,0.1381 0.27609,0.138 0.27609,0.2071 0.20707,0.138 0.27609,0.2071 0.20707,0.207 0.20707,0.2761 0.20706,0.2071 0.20707,0.2761 0.20707,0.2761 0.13805,0.3451 0.20706,0.2761 0.13805,0.3451 0.13805,0.3451 0.13804,0.3451 0.069,0.3452 0.13805,0.4141 0.069,0.4141 0.069,0.4142 0.069,0.4141 0,0.4141 0.069,0.4832 0,0.4832 c 0,5.9359 -3.52016,7.7305 -6.28107,7.7305 -1.93264,0 -6.14303,-0.5522 -8.14469,-3.3821 2.20873,-0.069 2.76091,-1.6566 2.76091,-2.6919 0,-1.5185 -1.17338,-2.6229 -2.62286,-2.6229 -1.38046,0 -2.69189,0.8283 -2.69189,2.7609 0,4.4865 4.96964,7.4545 10.83657,7.4545 6.62619,0 11.25072,-4.4865 11.25072,-9.249 0,-3.7963 -3.03701,-7.5235 -8.35176,-8.6279 5.03866,-1.7946 6.90228,-5.3838 6.90228,-8.3517 0,-3.7963 -4.41746,-6.6262 -9.73221,-6.6262 -5.31476,0 -9.45612,2.6228 -9.45612,6.4191 0,1.6565 1.10436,2.5538 2.55384,2.5538 1.44948,0 2.4158,-1.1043 2.4158,-2.4158 0,-1.3804 -0.96632,-2.4158 -2.4158,-2.4848 1.65655,-2.1397 4.96964,-2.6919 6.76423,-2.6919 2.13971,0 5.17671,1.1044 5.17671,5.2458 0,2.0016 -0.69023,4.2103 -1.93264,5.7288 -1.58752,1.7946 -2.89896,1.9327 -5.31475,2.0707 -1.24241,0.069 -1.31143,0.069 -1.5185,0.1381 -0.13805,0 -0.48316,0.069 -0.48316,0.6212 0,0.6902 0.41413,0.6902 1.24241,0.6902 z"
         inkscape:connector-curvature="0"
         style="font-style:normal;font-variant:normal;font-weight:normal;font-stretch:normal;letter-spacing:normal;word-spacing:normal;text-anchor:start;fill:#000000;fill-opacity:1;fill-rule:evenodd;stroke:#000000;stroke-width:0;stroke-linecap:butt;stroke-linejoin:miter;stroke-miterlimit:10.43299961;stroke-opacity:1;stroke-dasharray:none;stroke-dashoffset:0" />
      <path
         id="path4051"
         d="m 727.74069,1401.2261 v -1.7256 h -5.31476 v -21.397 c 0,-1.0354 0,-1.3805 -1.10436,-1.3805 -0.55218,0 -0.75925,0 -1.24241,0.6902 l -15.94426,22.0873 v 1.7256 h 14.14967 l 0.34511,-1.7256 h -12.70019 l 12.70019,-17.6008 v 17.6008 l -0.34511,1.7256 v 3.9343 c 0,1.6565 0,2.2087 -3.86528,2.2087 h -1.31143 v 1.7256 c 2.4158,-0.069 5.4528,-0.2071 7.17837,-0.2071 1.79459,0 4.90061,0.1381 7.31641,0.2071 v -1.7256 h -1.31143 c -3.86528,0 -3.86528,-0.5522 -3.86528,-2.2087 v -3.9343 z"
         inkscape:connector-curvature="0"
         style="font-style:normal;font-variant:normal;font-weight:normal;font-stretch:normal;letter-spacing:normal;word-spacing:normal;text-anchor:start;fill:#000000;fill-opacity:1;fill-rule:evenodd;stroke:#000000;stroke-width:0;stroke-linecap:butt;stroke-linejoin:miter;stroke-miterlimit:10.43299961;stroke-opacity:1;stroke-dasharray:none;stroke-dashoffset:0" />
    </g>
  </g>
  <g
     inkscape:groupmode="layer"
     id="layer3"
     inkscape:label="departamentos"
     style="display:inline">
    <rect
       transform="translate(45.311946,-228.54378)"
       y="520.01178"
       x="102.02541"
       height="68.690376"
       width="123.23861"
       id="rect3757"
       style="color:#000000;fill:#ffffff;fill-opacity:1;fill-rule:nonzero;stroke:#000000;stroke-width:2.5;stroke-linecap:butt;stroke-linejoin:miter;stroke-miterlimit:4;stroke-opacity:1;stroke-dasharray:none;stroke-dashoffset:0;marker:none;visibility:visible;display:inline;overflow:visible;enable-background:accumulate" />
    <rect
       transform="translate(45.311946,-228.54378)"
       y="606.88489"
       x="95.964493"
       height="98.994949"
       width="147.48227"
       id="rect3759"
       style="color:#000000;fill:#ffffff;fill-opacity:1;fill-rule:nonzero;stroke:#000000;stroke-width:2.5;stroke-linecap:butt;stroke-linejoin:miter;stroke-miterlimit:4;stroke-opacity:1;stroke-dasharray:none;stroke-dashoffset:0;marker:none;visibility:visible;display:inline;overflow:visible;enable-background:accumulate" />
    <rect
       transform="translate(45.311946,-228.54378)"
       y="524.05237"
       x="277.79196"
       height="96.974648"
       width="113.13708"
       id="rect3761"
       style="color:#000000;fill:#ffffff;fill-opacity:1;fill-rule:nonzero;stroke:#000000;stroke-width:2.5;stroke-linecap:butt;stroke-linejoin:miter;stroke-miterlimit:4;stroke-opacity:1;stroke-dasharray:none;stroke-dashoffset:0;marker:none;visibility:visible;display:inline;overflow:visible;enable-background:accumulate" />
    <rect
       transform="translate(45.311946,-228.54378)"
       y="638.19958"
       x="293.95438"
       height="67.374924"
       width="91.282158"
       id="rect3763"
       style="color:#000000;fill:#ffffff;fill-opacity:1;fill-rule:nonzero;stroke:#000000;stroke-width:2.5;stroke-linecap:butt;stroke-linejoin:miter;stroke-miterlimit:4;stroke-opacity:1;stroke-dasharray:none;stroke-dashoffset:0;marker:none;visibility:visible;display:inline;overflow:visible;enable-background:accumulate" />
    <g
       style="display:inline"
       id="g4147"
       transform="translate(-471.88615,-125.2801)">
      <path
         id="path4001"
         d="m 658.23476,462.58544 -0.20707,0.41414 -0.27609,0.41413 -0.27609,0.34512 -0.20707,0.34511 -0.27609,0.34511 -0.27609,0.34512 -0.2761,0.27609 -0.20706,0.27609 -0.2761,0.27609 -0.27609,0.27609 -0.27609,0.20707 -0.20707,0.27609 -0.27609,0.20707 -0.27609,0.13805 -0.27609,0.20706 -0.20707,0.13805 -0.27609,0.20707 -0.27609,0.13804 -0.27609,0.069 -0.27609,0.13804 -0.20707,0.13805 -0.27609,0.069 -0.27609,0.069 -0.27609,0.069 -0.27609,0.069 -0.2761,0.069 -0.27609,0.069 -0.27609,0 -0.55218,0.13805 -0.55218,0 c -0.82828,0.069 -1.44948,0.069 -1.44948,1.38046 0,0.41413 0.34511,0.75925 0.8973,0.75925 1.86361,0 4.00332,-0.20707 5.93595,-0.20707 2.20873,0 4.62453,0.20707 6.83326,0.20707 0.41414,0 1.31143,0 1.31143,-1.31144 0,-0.75925 -0.6212,-0.82827 -1.10436,-0.82827 -1.58753,-0.13805 -3.24407,-0.69023 -3.24407,-2.4158 0,-0.82827 0.41413,-1.5185 0.96632,-2.48482 l 5.24573,-8.76589 h 17.25569 l -0.20707,-2.1397 h -15.73719 l 13.52846,-22.63947 2.20873,22.63947 0.20707,2.1397 c 0.13804,1.38046 1.10436,10.76755 1.10436,11.38876 0,2.07068 -3.58918,2.27775 -4.96964,2.27775 -0.96632,0 -1.65654,0 -1.65654,1.38046 0,0.75925 0.82827,0.75925 0.96632,0.75925 2.82993,0 5.72889,-0.20707 8.55882,-0.20707 1.72557,0 6.074,0.20707 7.79957,0.20707 0.41414,0 1.24241,0 1.24241,-1.38046 0,-0.75925 -0.69023,-0.75925 -1.58752,-0.75925 -4.27941,0 -4.27941,-0.48316 -4.48648,-2.48482 l -4.21039,-42.79412 c -0.13805,-1.38045 -0.13805,-1.65654 -1.31143,-1.65654 -1.03535,0 -1.31144,0.48316 -1.72557,1.17338 z"
         inkscape:connector-curvature="0"
         style="font-style:normal;font-variant:normal;font-weight:normal;font-stretch:normal;letter-spacing:normal;word-spacing:normal;text-anchor:start;fill:#000000;fill-opacity:1;fill-rule:evenodd;stroke:#000000;stroke-width:0;stroke-linecap:butt;stroke-linejoin:miter;stroke-miterlimit:10.43299961;stroke-opacity:1;stroke-dasharray:none;stroke-dashoffset:0" />
      <path
         id="path4003"
         d="m 713.66004,450.23036 0,-0.069 0,0 0,-0.069 0,-0.069 0,-0.069 0,-0.069 0,0 0,-0.069 0,-0.069 0,0 0,-0.069 0,-0.069 -0.069,0 0,-0.069 0,0 0,-0.069 0,0 0,-0.069 0,-0.069 0,0 -0.069,-0.069 0,-0.069 0,0 -0.069,-0.069 0,-0.069 -0.069,0 -0.069,0 0,-0.069 -0.069,0 -0.069,0 -0.069,0 -0.069,-0.069 0,0 -0.069,0 0,0 -0.069,0 0,0 -0.069,0 -0.069,0 0,0 -0.069,0 -0.069,0 0,0 -0.069,0 -0.069,0 -0.069,0 0,0 -0.069,0 -0.069,0 -0.069,0 c -3.10602,3.037 -7.45446,3.037 -9.45612,3.037 v 1.72557 c 1.17339,0 4.34844,0 6.9713,-1.31143 v 24.43406 c 0,1.58752 0,2.27775 -4.76257,2.27775 h -1.86361 v 1.72557 c 0.89729,-0.069 6.83325,-0.20707 8.55882,-0.20707 1.5185,0 7.5925,0.13805 8.62785,0.20707 v -1.72557 h -1.86362 c -4.76257,0 -4.76257,-0.69023 -4.76257,-2.27775 z"
         inkscape:connector-curvature="0"
         style="font-style:normal;font-variant:normal;font-weight:normal;font-stretch:normal;letter-spacing:normal;word-spacing:normal;text-anchor:start;fill:#000000;fill-opacity:1;fill-rule:evenodd;stroke:#000000;stroke-width:0;stroke-linecap:butt;stroke-linejoin:miter;stroke-miterlimit:10.43299961;stroke-opacity:1;stroke-dasharray:none;stroke-dashoffset:0" />
    </g>
    <g
       style="display:inline"
       id="g4151"
       transform="translate(-470.06704,-126.37449)">
      <path
         id="path4005"
         d="m 658.23476,565.70546 -0.20707,0.41414 -0.27609,0.41413 -0.27609,0.41414 -0.20707,0.34511 -0.27609,0.34512 -0.27609,0.27609 -0.2761,0.34511 -0.20706,0.27609 -0.2761,0.27609 -0.27609,0.20707 -0.27609,0.27609 -0.20707,0.20707 -0.27609,0.20707 -0.27609,0.20707 -0.27609,0.13804 -0.20707,0.20707 -0.27609,0.13805 -0.27609,0.13804 -0.27609,0.13805 -0.27609,0.069 -0.20707,0.13805 -0.27609,0.069 -0.27609,0.13804 -0.27609,0.069 -0.27609,0.069 -0.2761,0 -0.27609,0.069 -0.27609,0.069 -0.55218,0.069 -0.55218,0.069 c -0.82828,0.069 -1.44948,0.069 -1.44948,1.38046 0,0.34511 0.34511,0.69022 0.8973,0.69022 1.86361,0 4.00332,-0.20706 5.93595,-0.20706 2.27776,0 4.62453,0.20706 6.83326,0.20706 0.41414,0 1.31143,0 1.31143,-1.24241 0,-0.75925 -0.6212,-0.82827 -1.10436,-0.82827 -1.58753,-0.13804 -3.24407,-0.69023 -3.24407,-2.4158 0,-0.82827 0.41413,-1.58752 0.96632,-2.55384 l 5.24573,-8.76589 h 17.25569 l -0.20707,-2.13971 h -15.73719 l 13.52846,-22.63946 2.20873,22.63946 0.20707,2.13971 c 0.13804,1.44948 1.10436,10.76755 1.10436,11.45778 0,2.07068 -3.58918,2.27775 -4.96964,2.27775 -0.96632,0 -1.65654,0 -1.65654,1.38046 0,0.69022 0.82827,0.69022 0.96632,0.69022 2.82993,0 5.72889,-0.20706 8.55882,-0.20706 1.72557,0 6.074,0.20706 7.79957,0.20706 0.41414,0 1.24241,0 1.24241,-1.31143 0,-0.75925 -0.69023,-0.75925 -1.58752,-0.75925 -4.27941,0 -4.27941,-0.48316 -4.48648,-2.48482 l -4.21039,-42.86314 c -0.13805,-1.38045 -0.13805,-1.65655 -1.31143,-1.65655 -1.03535,0 -1.31144,0.48316 -1.72557,1.17339 z"
         inkscape:connector-curvature="0"
         style="font-style:normal;font-variant:normal;font-weight:normal;font-stretch:normal;letter-spacing:normal;word-spacing:normal;text-anchor:start;fill:#000000;fill-opacity:1;fill-rule:evenodd;stroke:#000000;stroke-width:0;stroke-linecap:butt;stroke-linejoin:miter;stroke-miterlimit:10.43299961;stroke-opacity:1;stroke-dasharray:none;stroke-dashoffset:0" />
      <path
         id="path4007"
         d="m 721.80473,575.16158 h -1.65655 c -0.13804,1.10436 -0.55218,3.9343 -1.24241,4.41746 -0.34511,0.27609 -4.07234,0.27609 -4.69355,0.27609 h -8.90393 c 5.03866,-4.48648 6.76423,-5.79792 9.66318,-8.07567 3.52016,-2.82993 6.83326,-5.79791 6.83326,-10.35341 0,-5.79792 -5.10769,-9.3871 -11.25071,-9.3871 -5.93596,0 -10.00831,4.21039 -10.00831,8.62785 0,2.41579 2.07069,2.69188 2.55385,2.69188 1.17338,0 2.55384,-0.82827 2.55384,-2.55384 0,-0.89729 -0.34511,-2.55384 -2.82993,-2.55384 1.5185,-3.45114 4.76257,-4.48648 7.04032,-4.48648 4.76257,0 7.31641,3.72723 7.31641,7.66153 0,4.14136 -2.96798,7.45446 -4.5555,9.18003 l -11.59583,11.45777 c -0.48316,0.41414 -0.48316,0.48316 -0.48316,1.86362 h 19.80954 z"
         inkscape:connector-curvature="0"
         style="font-style:normal;font-variant:normal;font-weight:normal;font-stretch:normal;letter-spacing:normal;word-spacing:normal;text-anchor:start;fill:#000000;fill-opacity:1;fill-rule:evenodd;stroke:#000000;stroke-width:0;stroke-linecap:butt;stroke-linejoin:miter;stroke-miterlimit:10.43299961;stroke-opacity:1;stroke-dasharray:none;stroke-dashoffset:0" />
    </g>
    <g
       style="display:inline"
       id="g4155"
       transform="translate(-305.61917,-313.82029)">
      <path
         id="path4009"
         d="m 658.23476,668.8945 -0.20707,0.41414 -0.27609,0.34511 -0.27609,0.41414 -0.20707,0.34511 -0.27609,0.34511 -0.27609,0.34512 -0.2761,0.27609 -0.20706,0.27609 -0.2761,0.27609 -0.27609,0.27609 -0.27609,0.20707 -0.20707,0.20707 -0.27609,0.20707 -0.27609,0.20707 -0.27609,0.20706 -0.20707,0.13805 -0.27609,0.13805 -0.27609,0.13804 -0.27609,0.13805 -0.27609,0.13804 -0.20707,0.069 -0.27609,0.13805 -0.27609,0.069 -0.27609,0.069 -0.27609,0.069 -0.2761,0.069 -0.27609,0.069 -0.27609,0 -0.55218,0.069 -0.55218,0.069 c -0.82828,0.069 -1.44948,0.069 -1.44948,1.38045 0,0.41414 0.34511,0.75926 0.8973,0.75926 1.86361,0 4.00332,-0.20707 5.93595,-0.20707 2.27776,0 4.62453,0.20707 6.83326,0.20707 0.41414,0 1.31143,0 1.31143,-1.31144 0,-0.75925 -0.6212,-0.82827 -1.10436,-0.82827 -1.58753,-0.13805 -3.24407,-0.69023 -3.24407,-2.4158 0,-0.82827 0.41413,-1.58752 0.96632,-2.55384 l 5.24573,-8.76589 h 17.25569 l -0.20707,-2.13971 h -15.73719 l 13.52846,-22.57044 2.20873,22.57044 0.20707,2.13971 c 0.13804,1.44948 1.10436,10.76755 1.10436,11.45778 0,2.07068 -3.58918,2.27775 -4.96964,2.27775 -0.96632,0 -1.65654,0 -1.65654,1.38045 0,0.75926 0.82827,0.75926 0.96632,0.75926 2.82993,0 5.72889,-0.20707 8.55882,-0.20707 1.72557,0 6.074,0.20707 7.79957,0.20707 0.41414,0 1.24241,0 1.24241,-1.38046 0,-0.75925 -0.69023,-0.75925 -1.58752,-0.75925 -4.27941,0 -4.27941,-0.48316 -4.48648,-2.48482 l -4.21039,-42.86314 c -0.13805,-1.31143 -0.13805,-1.65655 -1.31143,-1.65655 -1.03535,0 -1.31144,0.48316 -1.72557,1.17339 z"
         inkscape:connector-curvature="0"
         style="font-style:normal;font-variant:normal;font-weight:normal;font-stretch:normal;letter-spacing:normal;word-spacing:normal;text-anchor:start;fill:#000000;fill-opacity:1;fill-rule:evenodd;stroke:#000000;stroke-width:0;stroke-linecap:butt;stroke-linejoin:miter;stroke-miterlimit:10.43299961;stroke-opacity:1;stroke-dasharray:none;stroke-dashoffset:0" />
      <path
         id="path4011"
         d="m 710.69206,671.03421 0.34512,0 0.34511,0 0.27609,0.069 0.34511,0.069 0.34512,0.069 0.27609,0.069 0.34511,0.069 0.27609,0.13804 0.27609,0.13805 0.2761,0.13805 0.27609,0.13804 0.27609,0.20707 0.27609,0.20707 0.20707,0.20707 0.27609,0.20706 0.20707,0.20707 0.20707,0.27609 0.20706,0.2761 0.13805,0.27609 0.20707,0.27609 0.13804,0.27609 0.13805,0.34511 0.13804,0.34512 0.13805,0.34511 0.13805,0.34511 0.069,0.41414 0.069,0.41414 0.069,0.41413 0.069,0.41414 0.069,0.41414 0,0.48316 0,0.48316 c 0,5.93595 -3.45114,7.73055 -6.28107,7.73055 -1.86362,0 -6.14303,-0.55219 -8.14469,-3.38212 2.27775,-0.069 2.76091,-1.65655 2.76091,-2.69189 0,-1.5185 -1.10436,-2.62286 -2.62286,-2.62286 -1.31144,0 -2.69189,0.82827 -2.69189,2.76091 0,4.5555 5.03866,7.45446 10.83657,7.45446 6.69521,0 11.25071,-4.41746 11.25071,-9.24905 0,-3.72723 -3.037,-7.52349 -8.35175,-8.55883 5.03866,-1.86361 6.90228,-5.4528 6.90228,-8.42078 0,-3.72723 -4.34844,-6.55716 -9.73221,-6.55716 -5.31476,0 -9.3871,2.55384 -9.3871,6.41912 0,1.58752 1.03534,2.55384 2.48482,2.55384 1.5185,0 2.4158,-1.10436 2.4158,-2.48482 0,-1.38045 -0.8973,-2.4158 -2.4158,-2.48482 1.65654,-2.1397 4.96964,-2.62286 6.76423,-2.62286 2.20873,0 5.17671,1.03534 5.17671,5.1767 0,2.07069 -0.62121,4.27942 -1.86362,5.72889 -1.65654,1.86362 -2.96798,1.93264 -5.38377,2.07069 -1.17339,0.13804 -1.31144,0.13804 -1.5185,0.13804 -0.13805,0 -0.48316,0.13805 -0.48316,0.62121 0,0.69023 0.41413,0.69023 1.24241,0.69023 z"
         inkscape:connector-curvature="0"
         style="font-style:normal;font-variant:normal;font-weight:normal;font-stretch:normal;letter-spacing:normal;word-spacing:normal;text-anchor:start;fill:#000000;fill-opacity:1;fill-rule:evenodd;stroke:#000000;stroke-width:0;stroke-linecap:butt;stroke-linejoin:miter;stroke-miterlimit:10.43299961;stroke-opacity:1;stroke-dasharray:none;stroke-dashoffset:0" />
    </g>
    <g
       style="display:inline"
       id="g4159"
       transform="translate(-300.7639,-317.17886)">
      <path
         id="path4013"
         d="m 658.23476,772.01452 -0.20707,0.41413 -0.27609,0.41414 -0.27609,0.34512 -0.20707,0.41413 -0.27609,0.27609 -0.27609,0.34512 -0.2761,0.34511 -0.20706,0.27609 -0.2761,0.27609 -0.27609,0.20707 -0.27609,0.27609 -0.20707,0.20707 -0.27609,0.20707 -0.27609,0.20707 -0.27609,0.13804 -0.20707,0.20707 -0.27609,0.13805 -0.27609,0.13804 -0.27609,0.13805 -0.27609,0.069 -0.20707,0.13805 -0.27609,0.069 -0.27609,0.069 -0.27609,0.069 -0.27609,0.069 -0.2761,0.069 -0.27609,0.069 -0.27609,0.069 -0.55218,0.069 -0.55218,0 c -0.82828,0.069 -1.44948,0.069 -1.44948,1.38045 0,0.41414 0.34511,0.75925 0.8973,0.75925 1.86361,0 4.00332,-0.20706 5.93595,-0.20706 2.27776,0 4.62453,0.20706 6.83326,0.20706 0.41414,0 1.31143,0 1.31143,-1.31143 0,-0.75925 -0.6212,-0.82827 -1.10436,-0.82827 -1.58753,-0.13805 -3.24407,-0.69023 -3.24407,-2.34678 0,-0.82827 0.41413,-1.58752 0.96632,-2.55384 l 5.24573,-8.76589 h 17.25569 l -0.20707,-2.13971 h -15.73719 l 13.52846,-22.63946 2.20873,22.63946 0.20707,2.13971 c 0.13804,1.44948 1.10436,10.76755 1.10436,11.45778 0,2.00166 -3.58918,2.20873 -4.96964,2.20873 -0.96632,0 -1.65654,0 -1.65654,1.38045 0,0.75925 0.82827,0.75925 0.96632,0.75925 2.82993,0 5.72889,-0.20706 8.55882,-0.20706 1.72557,0 6.074,0.20706 7.79957,0.20706 0.41414,0 1.24241,0 1.24241,-1.38045 0,-0.75925 -0.69023,-0.75925 -1.58752,-0.75925 -4.27941,0 -4.27941,-0.48316 -4.48648,-2.4158 l -4.21039,-42.86314 c -0.13805,-1.38045 -0.13805,-1.65655 -1.31143,-1.65655 -1.03535,0 -1.31144,0.48316 -1.72557,1.17339 z"
         inkscape:connector-curvature="0"
         style="font-style:normal;font-variant:normal;font-weight:normal;font-stretch:normal;letter-spacing:normal;word-spacing:normal;text-anchor:start;fill:#000000;fill-opacity:1;fill-rule:evenodd;stroke:#000000;stroke-width:0;stroke-linecap:butt;stroke-linejoin:miter;stroke-miterlimit:10.43299961;stroke-opacity:1;stroke-dasharray:none;stroke-dashoffset:0" />
      <path
         id="path4015"
         d="m 722.97811,782.36793 v -1.72557 h -5.31475 v -21.39705 c 0,-1.03535 0,-1.38046 -1.10436,-1.38046 -0.55219,0 -0.75925,0 -1.24241,0.69023 l -15.87524,22.08728 v 1.72557 h 14.08064 l 0.34512,-1.72557 h -12.70019 l 12.70019,-17.6008 v 17.6008 l -0.34512,1.72557 v 3.9343 c 0,1.58753 0,2.20873 -3.86527,2.20873 h -1.31143 v 1.72557 c 2.41579,-0.13805 5.52182,-0.20707 7.24739,-0.20707 1.72557,0 4.83159,0.069 7.24739,0.20707 v -1.72557 h -1.31143 c -3.86528,0 -3.86528,-0.6212 -3.86528,-2.20873 v -3.9343 z"
         inkscape:connector-curvature="0"
         style="font-style:normal;font-variant:normal;font-weight:normal;font-stretch:normal;letter-spacing:normal;word-spacing:normal;text-anchor:start;fill:#000000;fill-opacity:1;fill-rule:evenodd;stroke:#000000;stroke-width:0;stroke-linecap:butt;stroke-linejoin:miter;stroke-miterlimit:10.43299961;stroke-opacity:1;stroke-dasharray:none;stroke-dashoffset:0" />
    </g>
  </g>
  <g
     inkscape:groupmode="layer"
     id="layer2"
     inkscape:label="dimensiones"
     style="display:inline">
    <rect
       transform="translate(45.311946,-228.54378)"
       y="300.80869"
       x="44.446709"
       height="208.09146"
       width="438.40619"
       id="rect2985"
       style="color:#000000;fill:#ffffff;fill-opacity:1;fill-rule:nonzero;stroke:#000000;stroke-width:2.70000005;stroke-linecap:butt;stroke-linejoin:miter;stroke-miterlimit:4;stroke-opacity:1;stroke-dasharray:none;stroke-dashoffset:0;marker:none;visibility:visible;display:inline;overflow:visible;enable-background:accumulate" />
    <path
       transform="translate(45.311946,-228.54378)"
       style="font-style:normal;font-variant:normal;font-weight:normal;font-stretch:normal;letter-spacing:normal;word-spacing:normal;text-anchor:start;fill:#000000;fill-opacity:1;fill-rule:evenodd;stroke:#000000;stroke-width:0;stroke-linecap:butt;stroke-linejoin:miter;stroke-miterlimit:10.43299961;stroke-opacity:1;stroke-dasharray:none;stroke-dashoffset:0;display:inline"
       inkscape:connector-curvature="0"
       d="m 4.3847343,390.51138 0.069,-0.20707 0.069,-0.20707 0,-0.20707 0.069,-0.20706 0.069,-0.20707 0.069,-0.13805 0.069,-0.20707 0.069,-0.13804 0.069,-0.13805 0.069,-0.13804 0.069,-0.13805 0.069,-0.13804 0.13805,-0.13805 0.069,-0.069 0.13805,-0.13805 0.13804,-0.069 0.13805,-0.069 0.13804,-0.069 0.20707,-0.13804 0.20707,0 0.20707,-0.069 0.20707,-0.069 0.069,0 0.13804,-0.069 0.13805,0 0.13805,0 0.13804,-0.069 0.13805,0 0.13804,0 0.20707,0 0.13805,-0.069 0.13804,0 0.20707,0 0.13805,0 0.20706,0 0.20707,0 0.20707,0 0.20707,0 0.20707,0 0.20706,0 0.20707,0 0.2760897,0 c 1.72557,0 2.27776,0 2.27776,-1.38045 0,-0.75925 -0.75925,-0.75925 -0.96632,-0.75925 -1.9326397,0 -6.8332597,0.20707 -8.7658897,0.20707 -2.00167003,0 -6.8332605,-0.20707 -8.8349205,-0.20707 -0.55218,0 -1.31143,0 -1.31143,1.38045 0,0.75925 0.6212,0.75925 1.93264,0.75925 0.13804,0 1.44947,0 2.55384,0.069 1.24241,0.13804 1.86361,0.27609 1.86361,1.10436 0,0.27609 -0.069,0.41414 -0.27609,1.31143 l -4.07234,16.77254 H -26.399706 l 4.07234,-16.15133 c 0.6212,-2.48482 0.82827,-3.10603 5.79791,-3.10603 1.72557,0 2.27775,0 2.27775,-1.38045 0,-0.75925 -0.75925,-0.75925 -0.96632,-0.75925 -1.93263,0 -6.83325,0.20707 -8.76589,0.20707 -2.00166,0 -6.83325,-0.20707 -8.83491,-0.20707 -0.55218,0 -1.31143,0 -1.31143,1.38045 0,0.75925 0.6212,0.75925 1.93263,0.75925 0.13805,0 1.44948,0 2.55385,0.069 1.24241,0.13804 1.86361,0.27609 1.86361,1.10436 0,0.27609 -0.069,0.48316 -0.27609,1.31143 l -9.18003,36.85816 c -0.69023,2.62287 -0.82827,3.17505 -6.28107,3.17505 -1.17339,0 -1.79459,0 -1.79459,1.38046 0,0.75925 0.75925,0.75925 0.96632,0.75925 1.86361,0 6.76423,-0.20707 8.69686,-0.20707 1.44948,0 2.96798,0.069 4.41746,0.069 1.44948,0 2.96798,0.13805 4.41746,0.13805 0.55218,0 1.38045,0 1.38045,-1.38046 0,-0.75925 -0.6212,-0.75925 -1.93263,-0.75925 -2.55385,0 -4.41746,0 -4.41746,-1.17339 0,-0.41413 0.13805,-0.75925 0.20707,-1.17338 l 4.62452,-18.84322 h 20.9829298 c -2.89896,11.38876 -4.4864798,17.94592 -4.7625798,18.98126 -0.69022,2.13971 -2.00166,2.20873 -6.21204,2.20873 -1.03535,0 -1.65655,0 -1.65655,1.38046 0,0.75925 0.82827,0.75925 0.96632,0.75925 1.86361,0 6.76423,-0.20707 8.6968698,-0.20707 1.44948,0 2.96798,0.069 4.41745,0.069 1.51851,0 2.96798,0.13805 4.41746047,0.13805 0.55218,0 1.38046003,0 1.38046003,-1.38046 0,-0.75925 -0.62121003,-0.75925 -1.93264003,-0.75925 -2.48482047,0 -4.41746047,0 -4.41746047,-1.17339 0,-0.41413 0.13805,-0.75925 0.20707,-1.17338 z"
       id="path3997" />
    <path
       transform="translate(45.311946,-228.54378)"
       style="font-style:normal;font-variant:normal;font-weight:normal;font-stretch:normal;letter-spacing:normal;word-spacing:normal;text-anchor:start;fill:#000000;fill-opacity:1;fill-rule:evenodd;stroke:#000000;stroke-width:0;stroke-linecap:butt;stroke-linejoin:miter;stroke-miterlimit:10.43299961;stroke-opacity:1;stroke-dasharray:none;stroke-dashoffset:0;display:inline"
       inkscape:connector-curvature="0"
       d="m 288.80845,236.48129 0.34511,-0.55219 0.27609,-0.55218 0.34512,-0.48316 0.34511,-0.55218 0.20707,-0.20707 0.13805,-0.27609 0.20706,-0.20707 0.20707,-0.20707 0.20707,-0.20706 0.13805,-0.2761 0.20707,-0.20706 0.27609,-0.13805 0.20706,-0.20707 0.20707,-0.20707 0.27609,-0.13804 0.20707,-0.20707 0.27609,-0.13805 0.27609,-0.13804 0.2761,-0.13805 0.27609,-0.13804 0.34511,-0.13805 0.27609,-0.069 0.34512,-0.13805 0.34511,-0.069 0.34511,-0.069 0.34512,-0.069 0.41413,-0.069 0.34512,0 c 0.6212,-0.069 1.31143,-0.069 1.31143,-1.38045 0,-0.27609 -0.27609,-0.75925 -0.82827,-0.75925 -1.58753,0 -3.52016,0.20706 -5.24573,0.20706 -2.34678,0 -4.90062,-0.20706 -7.17837,-0.20706 -0.41414,0 -1.31143,0 -1.31143,1.31143 0,0.75925 0.6212,0.82827 1.03534,0.82827 1.65654,0.069 4.07234,0.62121 4.07234,2.69189 0,0.75925 -0.34511,1.24241 -0.8973,2.20873 l -18.56712,32.30266 -2.48482,-33.95921 c -0.069,-1.38045 -0.20707,-3.17504 4.76257,-3.24407 1.17339,0 1.86362,0 1.86362,-1.38045 0,-0.69023 -0.75925,-0.75925 -1.03535,-0.75925 -2.69188,0 -5.59084,0.20706 -8.35175,0.20706 -1.58752,0 -5.65987,-0.20706 -7.24739,-0.20706 -0.34512,0 -1.31143,0 -1.31143,1.38045 0,0.75925 0.75925,0.75925 1.65654,0.75925 3.037,0 3.52016,0.41414 3.65821,1.72557 l 0.41414,5.24573 -17.39374,30.23198 -2.55385,-34.71846 c 0,-0.82827 0,-2.41579 5.17671,-2.48482 0.69023,0 1.44948,0 1.44948,-1.38045 0,-0.75925 -0.82827,-0.75925 -0.96632,-0.75925 -2.76091,0 -5.59084,0.20706 -8.42078,0.20706 -2.41579,0 -4.90061,-0.20706 -7.24739,-0.20706 -0.34511,0 -1.24241,0 -1.24241,1.31143 0,0.82827 0.62121,0.82827 1.72557,0.82827 3.45114,0 3.52016,0.62121 3.65821,2.55385 l 3.10602,41.89682 c 0.069,1.24241 0.13805,1.72557 1.10437,1.72557 0.82827,0 1.03534,-0.41414 1.65654,-1.38046 l 20.15465,-34.99454 2.55385,34.64943 c 0.13804,1.38045 0.27609,1.72557 1.10436,1.72557 0.8973,0 1.31143,-0.69023 1.65655,-1.24241 z"
       id="path3999" />
    <path
       transform="translate(45.311946,-228.54378)"
       style="fill:none;stroke:#000000;stroke-width:2.70000005;stroke-linecap:butt;stroke-linejoin:miter;stroke-miterlimit:4;stroke-opacity:1;stroke-dasharray:none;marker-start:url(#DistanceStart);marker-end:url(#DistanceEnd);display:inline"
       d="m 44.358751,284.39486 438.650819,0"
       id="path4195"
       inkscape:connector-curvature="0"
       sodipodi:nodetypes="cc" />
    <path
       transform="translate(45.311946,-228.54378)"
       style="fill:none;stroke:#000000;stroke-width:2.70000005;stroke-linecap:butt;stroke-linejoin:miter;stroke-miterlimit:4;stroke-opacity:1;stroke-dasharray:none;marker-start:url(#DistanceStart);marker-end:url(#DistanceEnd);display:inline"
       d="m 24.041575,508.67174 0,-207.76399"
       id="path4195-7"
       inkscape:connector-curvature="0"
       sodipodi:nodetypes="cc" />
  </g>
</svg>
