problem_name,repetition,number_of_solutions,mean_fitness,diversity,cpu_time
O9,0,10.0,265.282809543,1029.16642468,18.6758680344
O9,1,10.0,252.792689994,262.693202365,23.8811786175
O9,2,10.0,275.940606647,595.067590819,26.9344782829
O9,3,10.0,266.532123996,798.282605529,23.8252596855
O9,4,10.0,283.966740209,678.168468768,25.413164854
O9,average,10.0,268.902994078,672.675658432,23.7459898949
SC30,0,10.0,5556.99017146,173.032477842,145.92480588
SC30,1,10.0,5444.963418,318.089371567,155.734196186
SC30,2,10.0,4882.23224184,278.957465564,143.841037273
SC30,3,10.0,4522.40183219,169.371475696,147.966231823
SC30,4,10.0,5287.93561547,91.5244993274,153.707479715
SC30,average,10.0,5138.90465579,206.195057999,149.434750175
vC10,0,10.0,24839.5500438,1120.72579418,27.0757749081
vC10,1,10.0,27020.5556553,1241.68614975,23.2232534885
vC10,2,10.0,25774.9630394,1793.05856212,30.3416762352
vC10,3,10.0,24058.9812982,1266.55136545,22.8957037926
vC10,4,10.0,26443.4294218,1342.19191091,30.3253550529
vC10,average,10.0,25627.4958917,1352.84275648,26.7723526955
ChoppedPlastic,0,10.0,26.2277717524,314.755287446,25.6460475922
ChoppedPlastic,1,10.0,25.8503996301,115.323468024,23.7740569115
ChoppedPlastic,2,10.0,24.8300905427,7.19424519957e-14,25.6642255783
ChoppedPlastic,3,10.0,25.1142710541,368.002558716,28.2228212357
ChoppedPlastic,4,10.0,25.0160189815,71.3473511447,25.6835811138
ChoppedPlastic,average,10.0,25.4077103922,173.885733066,25.7981464863
Ba14,0,10.0,5256.33318254,28.0629170174,39.3047082424
Ba14,1,10.0,5374.25069703,102.692341717,37.9462125301
Ba14,2,10.0,5410.38654018,228.417375006,44.6935319901
Ba14,3,10.0,5137.40989959,100.397763285,44.4953351021
Ba14,4,10.0,5528.34941895,237.566152386,38.7938716412
Ba14,average,10.0,5341.34594766,139.427309882,41.0467319012
Ba12,0,10.0,8457.28571429,430.362417316,40.8130371571
Ba12,1,10.0,9268.1547619,66.139399004,41.9392011166
Ba12,2,10.0,8892.27707071,492.027665453,42.1004655361
Ba12,3,10.0,9045.15151515,596.711294638,40.0331084728
Ba12,4,10.0,9012.64935065,351.533085504,44.8722789288
Ba12,average,10.0,8935.10368254,387.354772383,41.9516182423
Du62,0,10.0,3889978.26564,3508.93412376,208.44378829
Du62,1,10.0,3870881.0025,2069.54501076,254.224742889
Du62,2,10.0,3918774.63235,2987.2544219,228.425488234
Du62,3,10.0,3894898.40339,1301.47508905,248.052615404
Du62,4,10.0,3901904.56014,5497.80822218,253.054742336
Du62,average,10.0,3895287.3728,3073.00337353,238.440275431
O8,0,10.0,265.268865349,76.1085386077,27.99036479
O8,1,10.0,275.700014267,613.193805915,15.0454320908
O8,2,10.0,277.072394936,642.105503416,18.4647350311
O8,3,10.0,281.749839549,466.034377588,22.0322053432
O8,4,10.0,277.16206499,626.025685428,21.3281071186
O8,average,10.0,275.390635818,484.693582191,20.9721688747
CartonPacks,0,10.0,58.039870045,237.900649329,26.4852151871
CartonPacks,1,10.0,60.4851105026,589.069164666,24.5466284752
CartonPacks,2,10.0,62.9239086074,224.441946261,24.7361114025
CartonPacks,3,10.0,57.034100608,463.75140614,21.8657345772
CartonPacks,4,10.0,61.4951638456,691.72678675,32.4913086891
CartonPacks,average,10.0,59.9956307217,441.377990629,26.0249996662
O7,0,10.0,139.285181098,80.563246695,19.934994936
O7,1,10.0,145.592378888,458.939074261,19.7773888111
O7,2,10.0,143.667369169,455.604414712,17.3053445816
O7,3,10.0,141.114466226,326.349440961,17.9371099472
O7,4,10.0,149.173416636,273.458032187,15.9896156788
O7,average,10.0,143.766562403,318.982841763,18.1888907909
SC35,0,10.0,5889.36438981,959.320113351,200.23810482
SC35,1,10.0,5807.7487185,1314.70987803,222.076113462
SC35,2,10.0,5615.80032465,697.447569784,218.141812086
SC35,3,10.0,6528.62079882,1618.02725849,214.450056553
SC35,4,10.0,6241.94801464,207.016969719,213.307645798
SC35,average,10.0,6016.69644928,959.304357874,213.642746544
AB20_AR2,0,10.0,6929.44991897,37.1874353795,38.8880245686
AB20_AR2,1,10.0,7661.52674904,120.825904012,46.095199585
AB20_AR2,2,10.0,7369.95438311,101.872615578,42.4742298126
AB20_AR2,3,10.0,8892.72685416,36.4873325854,40.9731800556
AB20_AR2,4,10.0,8605.63309633,2.9751326156,50.3502151966
AB20_AR2,average,10.0,7891.85820032,59.8696840342,43.7561698437
Slaughterhouse,0,10.0,3930.10267841,775.753070365,27.6175129414
Slaughterhouse,1,10.0,3981.18858999,1054.29131679,26.4904232025
Slaughterhouse,2,10.0,3818.68489992,1116.72618186,28.9382932186
Slaughterhouse,3,10.0,4314.97766485,904.261519538,26.377669096
Slaughterhouse,4,10.0,3937.13134113,1717.05523548,28.1847310066
Slaughterhouse,average,10.0,3996.41703486,1113.61746481,27.521725893
AB20_AR4,0,10.0,6132.16414331,60.066459223,44.4347071648
AB20_AR4,1,10.0,6513.26130122,140.986323714,44.7517066002
AB20_AR4,2,10.0,6282.91635197,95.9314581973,44.1133918762
AB20_AR4,3,10.0,6322.30214875,61.7993011852,42.1215732098
AB20_AR4,4,10.0,6637.67666368,190.492469808,43.8614766598
AB20_AR4,average,10.0,6377.66412179,109.855202426,43.8565711021
