problem_name,mean_fitness,stdev(%),diversity,mean_diversity
Ba14,5341.34594766,2.5067281338,139.427309882,3.09838466405
AB20_AR4,6377.66412179,2.78998122005,109.855202426,2.44122672057
Slaughterhouse,3996.41703486,4.205163525,1113.61746481,24.7470547735
AB20_AR2,7891.85820032,9.41925644082,59.8696840341,1.33043742298
vC10,25627.4958917,4.16962206883,1352.84275648,30.0631723663
SC30,5138.90465579,7.46913591481,206.195057999,4.58211239998
Du62,3895287.3728,0.400919355117,3073.00337353,68.2889638562
CartonPacks,59.9956307217,3.62568828301,441.377990629,9.80839979176
O9,268.902994078,3.91699998465,672.675658432,14.9483479652
Ba12,8935.10368254,2.99970211174,387.354772383,8.60788383073
ChoppedPlastic,25.4077103922,2.11338717734,173.885733066,3.86412740147
SC35,6016.69644928,5.42851965502,959.304357875,21.3178746194
O8,275.390635818,1.98193113667,484.693582191,10.7709684931
O7,143.766562403,2.40337823525,318.982841763,7.08850759474
